<?xml version="1.0" encoding="utf-8" standalone="yes"?>
<gpx version="1.1" creator="Locus Map, Android"
 xmlns="http://www.topografix.com/GPX/1/1"
 xmlns:xsi="http://www.w3.org/2001/XMLSchema-instance"
 xsi:schemaLocation="http://www.topografix.com/GPX/1/1 http://www.topografix.com/GPX/1/1/gpx.xsd"
 xmlns:gpxx="http://www.garmin.com/xmlschemas/GpxExtensions/v3"
 xmlns:gpxtrkx="http://www.garmin.com/xmlschemas/TrackStatsExtension/v1"
 xmlns:gpxtpx="http://www.garmin.com/xmlschemas/TrackPointExtension/v2"
 xmlns:locus="http://www.locusmap.eu">
	<metadata>
		<desc>File with points/tracks from Locus Map/3.50.0</desc>
	</metadata>
<trk>
<name>GTV j2</name>
	<extensions>
		<line xmlns="http://www.topografix.com/GPX/gpx_style/0/2">
			<color>FF8E00</color>
			<opacity>0.59</opacity>
			<width>12.0</width>
			<extensions>
				<locus:lsColorBase>#96FF8E00</locus:lsColorBase>
				<locus:lsWidth>12.0</locus:lsWidth>
				<locus:lsUnits>PIXELS</locus:lsUnits>
			</extensions>
		</line>
		<locus:activity>cycling_mountain</locus:activity>
		<locus:rteComputeType>5</locus:rteComputeType>
		<locus:rteSimpleRoundabouts>1</locus:rteSimpleRoundabouts>
	</extensions>
<trkseg>
<trkpt lat="44.9103740" lon="5.5019070">
	<ele>1617.09</ele>
</trkpt>
<trkpt lat="44.9103570" lon="5.5023830">
	<ele>1614.88</ele>
</trkpt>
<trkpt lat="44.9103470" lon="5.5025570">
	<ele>1614.93</ele>
</trkpt>
<trkpt lat="44.9103530" lon="5.5027620">
	<ele>1615.48</ele>
</trkpt>
<trkpt lat="44.9103450" lon="5.5031980">
	<ele>1618.01</ele>
</trkpt>
<trkpt lat="44.9103210" lon="5.5033330">
	<ele>1618.70</ele>
</trkpt>
<trkpt lat="44.9102970" lon="5.5034300">
	<ele>1619.08</ele>
</trkpt>
<trkpt lat="44.9101940" lon="5.5036310">
	<ele>1619.48</ele>
</trkpt>
<trkpt lat="44.9100570" lon="5.5038390">
	<ele>1619.77</ele>
</trkpt>
<trkpt lat="44.9099980" lon="5.5039900">
	<ele>1620.21</ele>
</trkpt>
<trkpt lat="44.9099190" lon="5.5042320">
	<ele>1621.27</ele>
</trkpt>
<trkpt lat="44.9097710" lon="5.5046480">
	<ele>1623.50</ele>
</trkpt>
<trkpt lat="44.9096940" lon="5.5047380">
	<ele>1623.55</ele>
</trkpt>
<trkpt lat="44.9095800" lon="5.5048340">
	<ele>1623.08</ele>
</trkpt>
<trkpt lat="44.9092320" lon="5.5048880">
	<ele>1620.87</ele>
</trkpt>
<trkpt lat="44.9091550" lon="5.5048790">
	<ele>1620.63</ele>
</trkpt>
<trkpt lat="44.9087970" lon="5.5049350">
	<ele>1620.01</ele>
</trkpt>
<trkpt lat="44.9087160" lon="5.5049160">
	<ele>1620.31</ele>
</trkpt>
<trkpt lat="44.9086040" lon="5.5048500">
	<ele>1621.17</ele>
</trkpt>
<trkpt lat="44.9084650" lon="5.5047840">
	<ele>1622.08</ele>
</trkpt>
<trkpt lat="44.9082660" lon="5.5046170">
	<ele>1623.81</ele>
</trkpt>
<trkpt lat="44.9082050" lon="5.5045880">
	<ele>1624.04</ele>
</trkpt>
<trkpt lat="44.9080560" lon="5.5045270">
	<ele>1624.36</ele>
</trkpt>
<trkpt lat="44.9079060" lon="5.5045210">
	<ele>1624.11</ele>
</trkpt>
<trkpt lat="44.9077940" lon="5.5044730">
	<ele>1624.24</ele>
</trkpt>
<trkpt lat="44.9076790" lon="5.5044450">
	<ele>1624.24</ele>
</trkpt>
<trkpt lat="44.9075800" lon="5.5044010">
	<ele>1624.43</ele>
</trkpt>
<trkpt lat="44.9074030" lon="5.5044100">
	<ele>1624.46</ele>
</trkpt>
<trkpt lat="44.9072000" lon="5.5043990">
	<ele>1624.96</ele>
</trkpt>
<trkpt lat="44.9070800" lon="5.5046140">
	<ele>1623.99</ele>
</trkpt>
<trkpt lat="44.9070170" lon="5.5046550">
	<ele>1623.94</ele>
</trkpt>
<trkpt lat="44.9069530" lon="5.5046670">
	<ele>1624.08</ele>
</trkpt>
<trkpt lat="44.9067880" lon="5.5046390">
	<ele>1624.80</ele>
</trkpt>
<trkpt lat="44.9065300" lon="5.5046300">
	<ele>1625.61</ele>
</trkpt>
<trkpt lat="44.9063390" lon="5.5047040">
	<ele>1625.82</ele>
</trkpt>
<trkpt lat="44.9061540" lon="5.5047320">
	<ele>1626.35</ele>
</trkpt>
<trkpt lat="44.9060590" lon="5.5047750">
	<ele>1626.58</ele>
</trkpt>
<trkpt lat="44.9059620" lon="5.5047960">
	<ele>1626.92</ele>
</trkpt>
<trkpt lat="44.9059100" lon="5.5048330">
	<ele>1627.05</ele>
</trkpt>
<trkpt lat="44.9058520" lon="5.5048580">
	<ele>1627.24</ele>
</trkpt>
<trkpt lat="44.9057580" lon="5.5048650">
	<ele>1627.62</ele>
</trkpt>
<trkpt lat="44.9057070" lon="5.5048850">
	<ele>1627.80</ele>
</trkpt>
<trkpt lat="44.9055280" lon="5.5050230">
	<ele>1628.24</ele>
</trkpt>
<trkpt lat="44.9054750" lon="5.5050360">
	<ele>1628.42</ele>
</trkpt>
<trkpt lat="44.9054230" lon="5.5050260">
	<ele>1628.65</ele>
</trkpt>
<trkpt lat="44.9052590" lon="5.5049280">
	<ele>1629.60</ele>
</trkpt>
<trkpt lat="44.9051860" lon="5.5049040">
	<ele>1629.96</ele>
</trkpt>
<trkpt lat="44.9051330" lon="5.5049070">
	<ele>1630.11</ele>
</trkpt>
<trkpt lat="44.9049950" lon="5.5049360">
	<ele>1630.30</ele>
</trkpt>
<trkpt lat="44.9049060" lon="5.5049240">
	<ele>1630.51</ele>
</trkpt>
<trkpt lat="44.9047650" lon="5.5048930">
	<ele>1630.82</ele>
</trkpt>
<trkpt lat="44.9046400" lon="5.5048240">
	<ele>1631.35</ele>
</trkpt>
<trkpt lat="44.9045350" lon="5.5048440">
	<ele>1631.20</ele>
</trkpt>
<trkpt lat="44.9044480" lon="5.5048710">
	<ele>1630.97</ele>
</trkpt>
<trkpt lat="44.9043570" lon="5.5048850">
	<ele>1630.82</ele>
</trkpt>
<trkpt lat="44.9042080" lon="5.5048750">
	<ele>1630.77</ele>
</trkpt>
<trkpt lat="44.9041230" lon="5.5049080">
	<ele>1630.47</ele>
</trkpt>
<trkpt lat="44.9040490" lon="5.5049550">
	<ele>1630.13</ele>
</trkpt>
<trkpt lat="44.9038840" lon="5.5051310">
	<ele>1629.37</ele>
</trkpt>
<trkpt lat="44.9038490" lon="5.5051940">
	<ele>1629.25</ele>
</trkpt>
<trkpt lat="44.9037780" lon="5.5052210">
	<ele>1629.19</ele>
</trkpt>
<trkpt lat="44.9036970" lon="5.5052100">
	<ele>1629.16</ele>
</trkpt>
<trkpt lat="44.9035930" lon="5.5052130">
	<ele>1629.11</ele>
</trkpt>
<trkpt lat="44.9034750" lon="5.5052690">
	<ele>1629.02</ele>
</trkpt>
<trkpt lat="44.9033440" lon="5.5052580">
	<ele>1628.93</ele>
</trkpt>
<trkpt lat="44.9031520" lon="5.5052050">
	<ele>1628.76</ele>
</trkpt>
<trkpt lat="44.9028870" lon="5.5049120">
	<ele>1628.51</ele>
</trkpt>
<trkpt lat="44.9027510" lon="5.5047440">
	<ele>1628.60</ele>
</trkpt>
<trkpt lat="44.9027100" lon="5.5047020">
	<ele>1628.66</ele>
</trkpt>
<trkpt lat="44.9026710" lon="5.5046800">
	<ele>1628.70</ele>
</trkpt>
<trkpt lat="44.9026290" lon="5.5046810">
	<ele>1628.68</ele>
</trkpt>
<trkpt lat="44.9025910" lon="5.5046960">
	<ele>1628.62</ele>
</trkpt>
<trkpt lat="44.9025490" lon="5.5047000">
	<ele>1628.58</ele>
</trkpt>
<trkpt lat="44.9021030" lon="5.5046140">
	<ele>1628.71</ele>
</trkpt>
<trkpt lat="44.9019510" lon="5.5045120">
	<ele>1628.98</ele>
</trkpt>
<trkpt lat="44.9018010" lon="5.5045250">
	<ele>1628.61</ele>
</trkpt>
<trkpt lat="44.9016820" lon="5.5044730">
	<ele>1628.29</ele>
</trkpt>
<trkpt lat="44.9016110" lon="5.5044750">
	<ele>1627.87</ele>
</trkpt>
<trkpt lat="44.9015650" lon="5.5045170">
	<ele>1627.44</ele>
</trkpt>
<trkpt lat="44.9015240" lon="5.5045340">
	<ele>1627.11</ele>
</trkpt>
<trkpt lat="44.9014640" lon="5.5045770">
	<ele>1626.58</ele>
</trkpt>
<trkpt lat="44.9014310" lon="5.5046410">
	<ele>1626.26</ele>
</trkpt>
<trkpt lat="44.9012840" lon="5.5047910">
	<ele>1625.23</ele>
</trkpt>
<trkpt lat="44.9012320" lon="5.5048170">
	<ele>1624.90</ele>
</trkpt>
<trkpt lat="44.9011910" lon="5.5048750">
	<ele>1624.70</ele>
</trkpt>
<trkpt lat="44.9011520" lon="5.5050070">
	<ele>1624.61</ele>
</trkpt>
<trkpt lat="44.9011360" lon="5.5050880">
	<ele>1624.55</ele>
</trkpt>
<trkpt lat="44.9011100" lon="5.5051290">
	<ele>1624.39</ele>
</trkpt>
<trkpt lat="44.9010680" lon="5.5051690">
	<ele>1624.10</ele>
</trkpt>
<trkpt lat="44.9010280" lon="5.5051440">
	<ele>1623.81</ele>
</trkpt>
<trkpt lat="44.9009820" lon="5.5050890">
	<ele>1623.43</ele>
</trkpt>
<trkpt lat="44.9008960" lon="5.5050580">
	<ele>1622.67</ele>
</trkpt>
<trkpt lat="44.9007700" lon="5.5049660">
	<ele>1621.24</ele>
</trkpt>
<trkpt lat="44.9006270" lon="5.5049640">
	<ele>1619.21</ele>
</trkpt>
<trkpt lat="44.9005440" lon="5.5049140">
	<ele>1617.83</ele>
</trkpt>
<trkpt lat="44.9004490" lon="5.5049520">
	<ele>1616.26</ele>
</trkpt>
<trkpt lat="44.9003930" lon="5.5050100">
	<ele>1615.27</ele>
</trkpt>
<trkpt lat="44.9003240" lon="5.5050230">
	<ele>1614.09</ele>
</trkpt>
<trkpt lat="44.9001100" lon="5.5049260">
	<ele>1611.22</ele>
</trkpt>
<trkpt lat="44.9000590" lon="5.5048710">
	<ele>1610.84</ele>
</trkpt>
<trkpt lat="44.8999790" lon="5.5048500">
	<ele>1610.28</ele>
</trkpt>
<trkpt lat="44.8998830" lon="5.5048560">
	<ele>1609.82</ele>
</trkpt>
<trkpt lat="44.8996490" lon="5.5049600">
	<ele>1609.31</ele>
</trkpt>
<trkpt lat="44.8995330" lon="5.5050410">
	<ele>1609.14</ele>
</trkpt>
<trkpt lat="44.8993020" lon="5.5050970">
	<ele>1609.21</ele>
</trkpt>
<trkpt lat="44.8992190" lon="5.5051290">
	<ele>1609.00</ele>
</trkpt>
<trkpt lat="44.8990450" lon="5.5052370">
	<ele>1607.84</ele>
</trkpt>
<trkpt lat="44.8988600" lon="5.5053010">
	<ele>1607.38</ele>
</trkpt>
<trkpt lat="44.8982520" lon="5.5056650">
	<ele>1607.16</ele>
</trkpt>
<trkpt lat="44.8978220" lon="5.5056660">
	<ele>1609.40</ele>
</trkpt>
<trkpt lat="44.8976530" lon="5.5057090">
	<ele>1609.90</ele>
</trkpt>
<trkpt lat="44.8975740" lon="5.5057840">
	<ele>1609.98</ele>
</trkpt>
<trkpt lat="44.8974160" lon="5.5058540">
	<ele>1609.97</ele>
</trkpt>
<trkpt lat="44.8973210" lon="5.5059690">
	<ele>1609.80</ele>
</trkpt>
<trkpt lat="44.8972640" lon="5.5060600">
	<ele>1609.67</ele>
</trkpt>
<trkpt lat="44.8971690" lon="5.5060790">
	<ele>1609.46</ele>
</trkpt>
<trkpt lat="44.8967750" lon="5.5060230">
	<ele>1607.26</ele>
</trkpt>
<trkpt lat="44.8965100" lon="5.5059170">
	<ele>1603.61</ele>
</trkpt>
<trkpt lat="44.8962510" lon="5.5055790">
	<ele>1597.69</ele>
</trkpt>
<trkpt lat="44.8961540" lon="5.5055050">
	<ele>1595.25</ele>
</trkpt>
<trkpt lat="44.8960070" lon="5.5054370">
	<ele>1591.72</ele>
</trkpt>
<trkpt lat="44.8958970" lon="5.5053470">
	<ele>1589.67</ele>
</trkpt>
<trkpt lat="44.8957830" lon="5.5051940">
	<ele>1588.58</ele>
</trkpt>
<trkpt lat="44.8956790" lon="5.5051480">
	<ele>1588.01</ele>
</trkpt>
<trkpt lat="44.8955180" lon="5.5051590">
	<ele>1587.67</ele>
</trkpt>
<trkpt lat="44.8953960" lon="5.5052180">
	<ele>1587.76</ele>
</trkpt>
<trkpt lat="44.8952250" lon="5.5053480">
	<ele>1588.23</ele>
</trkpt>
<trkpt lat="44.8949220" lon="5.5054960">
	<ele>1589.29</ele>
</trkpt>
<trkpt lat="44.8947330" lon="5.5055790">
	<ele>1590.23</ele>
</trkpt>
<trkpt lat="44.8946060" lon="5.5056460">
	<ele>1591.05</ele>
</trkpt>
<trkpt lat="44.8945260" lon="5.5056730">
	<ele>1591.59</ele>
</trkpt>
<trkpt lat="44.8944630" lon="5.5056770">
	<ele>1591.96</ele>
</trkpt>
<trkpt lat="44.8944150" lon="5.5057090">
	<ele>1592.33</ele>
</trkpt>
<trkpt lat="44.8943380" lon="5.5058070">
	<ele>1593.15</ele>
</trkpt>
<trkpt lat="44.8941850" lon="5.5058910">
	<ele>1594.34</ele>
</trkpt>
<trkpt lat="44.8941090" lon="5.5059030">
	<ele>1594.64</ele>
</trkpt>
<trkpt lat="44.8940340" lon="5.5058800">
	<ele>1594.63</ele>
</trkpt>
<trkpt lat="44.8939390" lon="5.5058910">
	<ele>1594.86</ele>
</trkpt>
<trkpt lat="44.8938630" lon="5.5059300">
	<ele>1595.21</ele>
</trkpt>
<trkpt lat="44.8937510" lon="5.5059260">
	<ele>1595.24</ele>
</trkpt>
<trkpt lat="44.8934900" lon="5.5058320">
	<ele>1594.91</ele>
</trkpt>
<trkpt lat="44.8933480" lon="5.5057110">
	<ele>1594.72</ele>
</trkpt>
<trkpt lat="44.8931560" lon="5.5056420">
	<ele>1594.71</ele>
</trkpt>
<trkpt lat="44.8929870" lon="5.5054830">
	<ele>1594.58</ele>
</trkpt>
<trkpt lat="44.8928610" lon="5.5054000">
	<ele>1594.50</ele>
</trkpt>
<trkpt lat="44.8926160" lon="5.5053660">
	<ele>1594.32</ele>
</trkpt>
<trkpt lat="44.8925190" lon="5.5054180">
	<ele>1594.25</ele>
</trkpt>
<trkpt lat="44.8922570" lon="5.5053510">
	<ele>1594.28</ele>
</trkpt>
<trkpt lat="44.8919190" lon="5.5051460">
	<ele>1594.61</ele>
</trkpt>
<trkpt lat="44.8915500" lon="5.5049980">
	<ele>1594.98</ele>
</trkpt>
<trkpt lat="44.8913960" lon="5.5049820">
	<ele>1594.94</ele>
</trkpt>
<trkpt lat="44.8912540" lon="5.5049860">
	<ele>1594.85</ele>
</trkpt>
<trkpt lat="44.8910800" lon="5.5052270">
	<ele>1594.58</ele>
</trkpt>
<trkpt lat="44.8906710" lon="5.5059230">
	<ele>1595.10</ele>
</trkpt>
<trkpt lat="44.8905960" lon="5.5060200">
	<ele>1595.21</ele>
</trkpt>
<trkpt lat="44.8903400" lon="5.5064490">
	<ele>1597.16</ele>
</trkpt>
<trkpt lat="44.8901440" lon="5.5068760">
	<ele>1599.68</ele>
</trkpt>
<trkpt lat="44.8899690" lon="5.5071710">
	<ele>1600.79</ele>
</trkpt>
<trkpt lat="44.8895950" lon="5.5077630">
	<ele>1603.23</ele>
</trkpt>
<trkpt lat="44.8884810" lon="5.5094930">
	<ele>1610.70</ele>
</trkpt>
<trkpt lat="44.8876990" lon="5.5088680">
	<ele>1611.85</ele>
</trkpt>
<trkpt lat="44.8874000" lon="5.5086070">
	<ele>1612.16</ele>
</trkpt>
<trkpt lat="44.8871800" lon="5.5084150">
	<ele>1611.82</ele>
</trkpt>
<trkpt lat="44.8869570" lon="5.5082850">
	<ele>1611.65</ele>
</trkpt>
<trkpt lat="44.8864980" lon="5.5076430">
	<ele>1610.81</ele>
</trkpt>
<trkpt lat="44.8863690" lon="5.5075860">
	<ele>1612.10</ele>
</trkpt>
<trkpt lat="44.8860370" lon="5.5075770">
	<ele>1616.21</ele>
</trkpt>
<trkpt lat="44.8859820" lon="5.5075570">
	<ele>1616.78</ele>
</trkpt>
<trkpt lat="44.8859290" lon="5.5075100">
	<ele>1617.25</ele>
</trkpt>
<trkpt lat="44.8856940" lon="5.5074950">
	<ele>1618.66</ele>
</trkpt>
<trkpt lat="44.8855390" lon="5.5075370">
	<ele>1619.04</ele>
</trkpt>
<trkpt lat="44.8850280" lon="5.5074650">
	<ele>1619.75</ele>
</trkpt>
<trkpt lat="44.8847270" lon="5.5074320">
	<ele>1621.77</ele>
</trkpt>
<trkpt lat="44.8843370" lon="5.5073450">
	<ele>1625.25</ele>
</trkpt>
<trkpt lat="44.8842260" lon="5.5073370">
	<ele>1626.53</ele>
</trkpt>
<trkpt lat="44.8841370" lon="5.5074350">
	<ele>1628.10</ele>
</trkpt>
<trkpt lat="44.8838300" lon="5.5081380">
	<ele>1634.12</ele>
</trkpt>
<trkpt lat="44.8836350" lon="5.5084610">
	<ele>1637.83</ele>
</trkpt>
<trkpt lat="44.8833980" lon="5.5087670">
	<ele>1642.82</ele>
</trkpt>
<trkpt lat="44.8832940" lon="5.5090080">
	<ele>1646.10</ele>
</trkpt>
<trkpt lat="44.8832420" lon="5.5092140">
	<ele>1648.34</ele>
</trkpt>
<trkpt lat="44.8831570" lon="5.5093810">
	<ele>1650.42</ele>
</trkpt>
<trkpt lat="44.8830120" lon="5.5094000">
	<ele>1651.91</ele>
</trkpt>
<trkpt lat="44.8828180" lon="5.5095280">
	<ele>1654.72</ele>
</trkpt>
<trkpt lat="44.8826910" lon="5.5096490">
	<ele>1656.99</ele>
</trkpt>
<trkpt lat="44.8825100" lon="5.5098390">
	<ele>1660.76</ele>
</trkpt>
<trkpt lat="44.8824440" lon="5.5099880">
	<ele>1662.78</ele>
</trkpt>
<trkpt lat="44.8824040" lon="5.5101720">
	<ele>1664.66</ele>
</trkpt>
<trkpt lat="44.8823240" lon="5.5103540">
	<ele>1667.03</ele>
</trkpt>
<trkpt lat="44.8820200" lon="5.5106410">
	<ele>1672.20</ele>
</trkpt>
<trkpt lat="44.8818680" lon="5.5107510">
	<ele>1674.01</ele>
</trkpt>
<trkpt lat="44.8813170" lon="5.5108290">
	<ele>1679.67</ele>
</trkpt>
<trkpt lat="44.8812010" lon="5.5107410">
	<ele>1681.18</ele>
</trkpt>
<trkpt lat="44.8811140" lon="5.5107380">
	<ele>1682.20</ele>
</trkpt>
<trkpt lat="44.8810260" lon="5.5108100">
	<ele>1683.02</ele>
</trkpt>
<trkpt lat="44.8808440" lon="5.5108240">
	<ele>1684.90</ele>
</trkpt>
<trkpt lat="44.8808150" lon="5.5107750">
	<ele>1685.25</ele>
</trkpt>
<trkpt lat="44.8805070" lon="5.5105220">
	<ele>1688.65</ele>
</trkpt>
<trkpt lat="44.8801530" lon="5.5105030">
	<ele>1690.68</ele>
</trkpt>
<trkpt lat="44.8796940" lon="5.5102260">
	<ele>1692.17</ele>
</trkpt>
<trkpt lat="44.8794200" lon="5.5099470">
	<ele>1690.62</ele>
</trkpt>
<trkpt lat="44.8792820" lon="5.5098750">
	<ele>1689.79</ele>
</trkpt>
<trkpt lat="44.8788360" lon="5.5094290">
	<ele>1689.70</ele>
</trkpt>
<trkpt lat="44.8783810" lon="5.5091820">
	<ele>1689.26</ele>
</trkpt>
<trkpt lat="44.8782400" lon="5.5090320">
	<ele>1687.81</ele>
</trkpt>
<trkpt lat="44.8780330" lon="5.5088710">
	<ele>1685.58</ele>
</trkpt>
<trkpt lat="44.8775850" lon="5.5087800">
	<ele>1681.76</ele>
</trkpt>
<trkpt lat="44.8773120" lon="5.5087670">
	<ele>1680.24</ele>
</trkpt>
<trkpt lat="44.8770460" lon="5.5086830">
	<ele>1678.75</ele>
</trkpt>
<trkpt lat="44.8769320" lon="5.5084900">
	<ele>1677.86</ele>
</trkpt>
<trkpt lat="44.8767170" lon="5.5083310">
	<ele>1677.75</ele>
</trkpt>
<trkpt lat="44.8766190" lon="5.5082780">
	<ele>1678.12</ele>
</trkpt>
<trkpt lat="44.8765010" lon="5.5080660">
	<ele>1678.53</ele>
</trkpt>
<trkpt lat="44.8764170" lon="5.5078200">
	<ele>1678.68</ele>
</trkpt>
<trkpt lat="44.8763120" lon="5.5076490">
	<ele>1679.43</ele>
</trkpt>
<trkpt lat="44.8758650" lon="5.5075330">
	<ele>1683.22</ele>
</trkpt>
<trkpt lat="44.8756300" lon="5.5075540">
	<ele>1682.16</ele>
</trkpt>
<trkpt lat="44.8753580" lon="5.5077740">
	<ele>1680.26</ele>
</trkpt>
<trkpt lat="44.8750270" lon="5.5077710">
	<ele>1676.68</ele>
</trkpt>
<trkpt lat="44.8746680" lon="5.5081950">
	<ele>1681.93</ele>
</trkpt>
<trkpt lat="44.8745370" lon="5.5083670">
	<ele>1684.87</ele>
</trkpt>
<trkpt lat="44.8744190" lon="5.5083990">
	<ele>1686.08</ele>
</trkpt>
<trkpt lat="44.8741820" lon="5.5084020">
	<ele>1686.80</ele>
</trkpt>
<trkpt lat="44.8740530" lon="5.5083110">
	<ele>1685.15</ele>
</trkpt>
<trkpt lat="44.8739110" lon="5.5083630">
	<ele>1684.32</ele>
</trkpt>
<trkpt lat="44.8738150" lon="5.5083530">
	<ele>1682.98</ele>
</trkpt>
<trkpt lat="44.8737140" lon="5.5083290">
	<ele>1681.34</ele>
</trkpt>
<trkpt lat="44.8736290" lon="5.5083450">
	<ele>1680.43</ele>
</trkpt>
<trkpt lat="44.8735510" lon="5.5082920">
	<ele>1678.90</ele>
</trkpt>
<trkpt lat="44.8734220" lon="5.5081390">
	<ele>1676.03</ele>
</trkpt>
<trkpt lat="44.8733970" lon="5.5081670">
	<ele>1676.21</ele>
</trkpt>
<trkpt lat="44.8733650" lon="5.5082500">
	<ele>1677.05</ele>
</trkpt>
<trkpt lat="44.8733220" lon="5.5083010">
	<ele>1677.58</ele>
</trkpt>
<trkpt lat="44.8732550" lon="5.5083330">
	<ele>1678.07</ele>
</trkpt>
<trkpt lat="44.8730050" lon="5.5081010">
	<ele>1676.69</ele>
</trkpt>
<trkpt lat="44.8729160" lon="5.5080660">
	<ele>1677.00</ele>
</trkpt>
<trkpt lat="44.8727030" lon="5.5078090">
	<ele>1675.04</ele>
</trkpt>
<trkpt lat="44.8725720" lon="5.5077770">
	<ele>1675.06</ele>
</trkpt>
<trkpt lat="44.8725030" lon="5.5078470">
	<ele>1676.14</ele>
</trkpt>
<trkpt lat="44.8724010" lon="5.5078810">
	<ele>1676.46</ele>
</trkpt>
<trkpt lat="44.8721590" lon="5.5078850">
	<ele>1675.23</ele>
</trkpt>
<trkpt lat="44.8721090" lon="5.5078520">
	<ele>1674.39</ele>
</trkpt>
<trkpt lat="44.8720080" lon="5.5078910">
	<ele>1674.21</ele>
</trkpt>
<trkpt lat="44.8718990" lon="5.5078530">
	<ele>1672.89</ele>
</trkpt>
<trkpt lat="44.8717380" lon="5.5078610">
	<ele>1672.06</ele>
</trkpt>
<trkpt lat="44.8716510" lon="5.5079220">
	<ele>1672.52</ele>
</trkpt>
<trkpt lat="44.8714280" lon="5.5079590">
	<ele>1672.48</ele>
</trkpt>
<trkpt lat="44.8712140" lon="5.5078650">
	<ele>1671.34</ele>
</trkpt>
<trkpt lat="44.8710560" lon="5.5077560">
	<ele>1670.34</ele>
</trkpt>
<trkpt lat="44.8710110" lon="5.5076950">
	<ele>1669.80</ele>
</trkpt>
<trkpt lat="44.8709670" lon="5.5076040">
	<ele>1668.97</ele>
</trkpt>
<trkpt lat="44.8709510" lon="5.5075270">
	<ele>1668.24</ele>
</trkpt>
<trkpt lat="44.8709100" lon="5.5074670">
	<ele>1667.67</ele>
</trkpt>
<trkpt lat="44.8707630" lon="5.5071590">
	<ele>1664.23</ele>
</trkpt>
<trkpt lat="44.8705700" lon="5.5069640">
	<ele>1661.54</ele>
</trkpt>
<trkpt lat="44.8704560" lon="5.5068690">
	<ele>1660.20</ele>
</trkpt>
<trkpt lat="44.8702980" lon="5.5067530">
	<ele>1658.83</ele>
</trkpt>
<trkpt lat="44.8700570" lon="5.5064680">
	<ele>1657.45</ele>
</trkpt>
<trkpt lat="44.8698010" lon="5.5059810">
	<ele>1657.45</ele>
</trkpt>
<trkpt lat="44.8696390" lon="5.5057600">
	<ele>1657.78</ele>
</trkpt>
<trkpt lat="44.8693860" lon="5.5054860">
	<ele>1656.24</ele>
</trkpt>
<trkpt lat="44.8689960" lon="5.5052580">
	<ele>1652.68</ele>
</trkpt>
<trkpt lat="44.8688540" lon="5.5052210">
	<ele>1652.28</ele>
</trkpt>
<trkpt lat="44.8685840" lon="5.5052660">
	<ele>1653.78</ele>
</trkpt>
<trkpt lat="44.8685400" lon="5.5052230">
	<ele>1653.25</ele>
</trkpt>
<trkpt lat="44.8684930" lon="5.5051460">
	<ele>1652.28</ele>
</trkpt>
<trkpt lat="44.8681730" lon="5.5048130">
	<ele>1649.39</ele>
</trkpt>
<trkpt lat="44.8678980" lon="5.5046440">
	<ele>1648.56</ele>
</trkpt>
<trkpt lat="44.8677890" lon="5.5045390">
	<ele>1648.09</ele>
</trkpt>
<trkpt lat="44.8676940" lon="5.5044290">
	<ele>1647.71</ele>
</trkpt>
<trkpt lat="44.8676030" lon="5.5044210">
	<ele>1648.14</ele>
</trkpt>
<trkpt lat="44.8675350" lon="5.5043030">
	<ele>1647.73</ele>
</trkpt>
<trkpt lat="44.8673940" lon="5.5040300">
	<ele>1646.83</ele>
</trkpt>
<trkpt lat="44.8671920" lon="5.5038040">
	<ele>1647.07</ele>
</trkpt>
<trkpt lat="44.8669760" lon="5.5035090">
	<ele>1646.78</ele>
</trkpt>
<trkpt lat="44.8666490" lon="5.5033160">
	<ele>1646.89</ele>
</trkpt>
<trkpt lat="44.8664890" lon="5.5031690">
	<ele>1645.78</ele>
</trkpt>
<trkpt lat="44.8664080" lon="5.5031060">
	<ele>1645.24</ele>
</trkpt>
<trkpt lat="44.8663560" lon="5.5030290">
	<ele>1644.64</ele>
</trkpt>
<trkpt lat="44.8662440" lon="5.5028870">
	<ele>1643.66</ele>
</trkpt>
<trkpt lat="44.8661920" lon="5.5027480">
	<ele>1642.90</ele>
</trkpt>
<trkpt lat="44.8661640" lon="5.5026080">
	<ele>1642.25</ele>
</trkpt>
<trkpt lat="44.8661160" lon="5.5025170">
	<ele>1641.94</ele>
</trkpt>
<trkpt lat="44.8660860" lon="5.5024800">
	<ele>1641.85</ele>
</trkpt>
<trkpt lat="44.8660690" lon="5.5024260">
	<ele>1641.68</ele>
</trkpt>
<trkpt lat="44.8660520" lon="5.5022490">
	<ele>1641.15</ele>
</trkpt>
<trkpt lat="44.8659470" lon="5.5017770">
	<ele>1640.09</ele>
</trkpt>
<trkpt lat="44.8657870" lon="5.5015110">
	<ele>1639.94</ele>
</trkpt>
<trkpt lat="44.8657190" lon="5.5014120">
	<ele>1640.00</ele>
</trkpt>
<trkpt lat="44.8656350" lon="5.5013340">
	<ele>1640.10</ele>
</trkpt>
<trkpt lat="44.8655710" lon="5.5012480">
	<ele>1640.18</ele>
</trkpt>
<trkpt lat="44.8655520" lon="5.5012130">
	<ele>1640.21</ele>
</trkpt>
<trkpt lat="44.8654950" lon="5.5011570">
	<ele>1640.27</ele>
</trkpt>
<trkpt lat="44.8654360" lon="5.5010360">
	<ele>1640.31</ele>
</trkpt>
<trkpt lat="44.8653940" lon="5.5008860">
	<ele>1640.27</ele>
</trkpt>
<trkpt lat="44.8653310" lon="5.5007310">
	<ele>1640.16</ele>
</trkpt>
<trkpt lat="44.8652990" lon="5.5006350">
	<ele>1640.01</ele>
</trkpt>
<trkpt lat="44.8653060" lon="5.5005860">
	<ele>1639.88</ele>
</trkpt>
<trkpt lat="44.8653200" lon="5.5005430">
	<ele>1639.75</ele>
</trkpt>
<trkpt lat="44.8653290" lon="5.5003730">
	<ele>1639.30</ele>
</trkpt>
<trkpt lat="44.8653670" lon="5.5002750">
	<ele>1639.08</ele>
</trkpt>
<trkpt lat="44.8654030" lon="5.5002290">
	<ele>1639.04</ele>
</trkpt>
<trkpt lat="44.8654130" lon="5.5001700">
	<ele>1638.96</ele>
</trkpt>
<trkpt lat="44.8653940" lon="5.5000560">
	<ele>1638.79</ele>
</trkpt>
<trkpt lat="44.8653650" lon="5.4999980">
	<ele>1638.70</ele>
</trkpt>
<trkpt lat="44.8653220" lon="5.4999530">
	<ele>1638.63</ele>
</trkpt>
<trkpt lat="44.8653070" lon="5.4998700">
	<ele>1638.65</ele>
</trkpt>
<trkpt lat="44.8652950" lon="5.4996630">
	<ele>1638.92</ele>
</trkpt>
<trkpt lat="44.8652820" lon="5.4996070">
	<ele>1639.02</ele>
</trkpt>
<trkpt lat="44.8652440" lon="5.4994990">
	<ele>1639.24</ele>
</trkpt>
<trkpt lat="44.8652430" lon="5.4993900">
	<ele>1639.41</ele>
</trkpt>
<trkpt lat="44.8652570" lon="5.4991620">
	<ele>1639.43</ele>
</trkpt>
<trkpt lat="44.8652460" lon="5.4990010">
	<ele>1639.23</ele>
</trkpt>
<trkpt lat="44.8652230" lon="5.4988660">
	<ele>1638.93</ele>
</trkpt>
<trkpt lat="44.8650950" lon="5.4986450">
	<ele>1637.69</ele>
</trkpt>
<trkpt lat="44.8650690" lon="5.4984820">
	<ele>1636.55</ele>
</trkpt>
<trkpt lat="44.8650510" lon="5.4983010">
	<ele>1634.99</ele>
</trkpt>
<trkpt lat="44.8650270" lon="5.4982280">
	<ele>1634.12</ele>
</trkpt>
<trkpt lat="44.8649240" lon="5.4981530">
	<ele>1632.74</ele>
</trkpt>
<trkpt lat="44.8648170" lon="5.4980620">
	<ele>1631.21</ele>
</trkpt>
<trkpt lat="44.8647590" lon="5.4980320">
	<ele>1630.66</ele>
</trkpt>
<trkpt lat="44.8646960" lon="5.4980460">
	<ele>1630.75</ele>
</trkpt>
<trkpt lat="44.8646070" lon="5.4980850">
	<ele>1631.21</ele>
</trkpt>
<trkpt lat="44.8645460" lon="5.4980110">
	<ele>1630.21</ele>
</trkpt>
<trkpt lat="44.8644300" lon="5.4978990">
	<ele>1628.79</ele>
</trkpt>
<trkpt lat="44.8640970" lon="5.4976700">
	<ele>1626.92</ele>
</trkpt>
<trkpt lat="44.8639620" lon="5.4976540">
	<ele>1627.58</ele>
</trkpt>
<trkpt lat="44.8638730" lon="5.4976110">
	<ele>1627.90</ele>
</trkpt>
<trkpt lat="44.8637860" lon="5.4975310">
	<ele>1628.03</ele>
</trkpt>
<trkpt lat="44.8637150" lon="5.4973670">
	<ele>1627.45</ele>
</trkpt>
<trkpt lat="44.8636670" lon="5.4971740">
	<ele>1626.47</ele>
</trkpt>
<trkpt lat="44.8636370" lon="5.4970080">
	<ele>1625.53</ele>
</trkpt>
<trkpt lat="44.8635530" lon="5.4967450">
	<ele>1624.37</ele>
</trkpt>
<trkpt lat="44.8634490" lon="5.4964760">
	<ele>1623.51</ele>
</trkpt>
<trkpt lat="44.8633760" lon="5.4962080">
	<ele>1622.60</ele>
</trkpt>
<trkpt lat="44.8631660" lon="5.4960610">
	<ele>1622.02</ele>
</trkpt>
<trkpt lat="44.8629830" lon="5.4959860">
	<ele>1621.16</ele>
</trkpt>
<trkpt lat="44.8628770" lon="5.4959800">
	<ele>1620.77</ele>
</trkpt>
<trkpt lat="44.8625880" lon="5.4957970">
	<ele>1618.82</ele>
</trkpt>
<trkpt lat="44.8619920" lon="5.4953830">
	<ele>1618.55</ele>
</trkpt>
<trkpt lat="44.8616190" lon="5.4952000">
	<ele>1618.28</ele>
</trkpt>
<trkpt lat="44.8613710" lon="5.4950430">
	<ele>1617.35</ele>
</trkpt>
<trkpt lat="44.8611910" lon="5.4950040">
	<ele>1616.99</ele>
</trkpt>
<trkpt lat="44.8609350" lon="5.4950950">
	<ele>1617.25</ele>
</trkpt>
<trkpt lat="44.8607270" lon="5.4952600">
	<ele>1617.50</ele>
</trkpt>
<trkpt lat="44.8602190" lon="5.4956290">
	<ele>1613.64</ele>
</trkpt>
<trkpt lat="44.8599830" lon="5.4956690">
	<ele>1611.23</ele>
</trkpt>
<trkpt lat="44.8598240" lon="5.4956560">
	<ele>1610.00</ele>
</trkpt>
<trkpt lat="44.8597460" lon="5.4956180">
	<ele>1609.40</ele>
</trkpt>
<trkpt lat="44.8596320" lon="5.4956560">
	<ele>1608.87</ele>
</trkpt>
<trkpt lat="44.8595420" lon="5.4957440">
	<ele>1608.66</ele>
</trkpt>
<trkpt lat="44.8594340" lon="5.4957710">
	<ele>1608.20</ele>
</trkpt>
<trkpt lat="44.8591770" lon="5.4958890">
	<ele>1607.15</ele>
</trkpt>
<trkpt lat="44.8589190" lon="5.4958730">
	<ele>1605.76</ele>
</trkpt>
<trkpt lat="44.8587210" lon="5.4959510">
	<ele>1604.88</ele>
</trkpt>
<trkpt lat="44.8585120" lon="5.4960560">
	<ele>1604.03</ele>
</trkpt>
<trkpt lat="44.8583980" lon="5.4961470">
	<ele>1603.62</ele>
</trkpt>
<trkpt lat="44.8581490" lon="5.4961680">
	<ele>1602.56</ele>
</trkpt>
<trkpt lat="44.8579810" lon="5.4961680">
	<ele>1601.89</ele>
</trkpt>
<trkpt lat="44.8578440" lon="5.4962080">
	<ele>1601.35</ele>
</trkpt>
<trkpt lat="44.8577060" lon="5.4962330">
	<ele>1600.79</ele>
</trkpt>
<trkpt lat="44.8574830" lon="5.4961900">
	<ele>1599.88</ele>
</trkpt>
<trkpt lat="44.8570760" lon="5.4959830">
	<ele>1598.37</ele>
</trkpt>
<trkpt lat="44.8570190" lon="5.4959080">
	<ele>1597.98</ele>
</trkpt>
<trkpt lat="44.8569740" lon="5.4958810">
	<ele>1597.68</ele>
</trkpt>
<trkpt lat="44.8569260" lon="5.4958790">
	<ele>1597.38</ele>
</trkpt>
<trkpt lat="44.8568040" lon="5.4958460">
	<ele>1596.40</ele>
</trkpt>
<trkpt lat="44.8566960" lon="5.4957870">
	<ele>1595.19</ele>
</trkpt>
<trkpt lat="44.8564420" lon="5.4955000">
	<ele>1590.38</ele>
</trkpt>
<trkpt lat="44.8562230" lon="5.4952110">
	<ele>1584.97</ele>
</trkpt>
<trkpt lat="44.8561450" lon="5.4950950">
	<ele>1583.04</ele>
</trkpt>
<trkpt lat="44.8560460" lon="5.4950230">
	<ele>1580.95</ele>
</trkpt>
<trkpt lat="44.8559140" lon="5.4950180">
	<ele>1578.91</ele>
</trkpt>
<trkpt lat="44.8558140" lon="5.4950000">
	<ele>1577.84</ele>
</trkpt>
<trkpt lat="44.8557430" lon="5.4949500">
	<ele>1577.22</ele>
</trkpt>
<trkpt lat="44.8556770" lon="5.4948460">
	<ele>1576.59</ele>
</trkpt>
<trkpt lat="44.8554870" lon="5.4941910">
	<ele>1574.37</ele>
</trkpt>
<trkpt lat="44.8553380" lon="5.4937940">
	<ele>1572.98</ele>
</trkpt>
<trkpt lat="44.8550760" lon="5.4928990">
	<ele>1568.73</ele>
</trkpt>
<trkpt lat="44.8549180" lon="5.4924720">
	<ele>1566.41</ele>
</trkpt>
<trkpt lat="44.8547580" lon="5.4921740">
	<ele>1563.97</ele>
</trkpt>
<trkpt lat="44.8547240" lon="5.4919090">
	<ele>1562.60</ele>
</trkpt>
<trkpt lat="44.8546960" lon="5.4916300">
	<ele>1561.42</ele>
</trkpt>
<trkpt lat="44.8546270" lon="5.4915310">
	<ele>1560.83</ele>
</trkpt>
<trkpt lat="44.8543360" lon="5.4913030">
	<ele>1559.80</ele>
</trkpt>
<trkpt lat="44.8541650" lon="5.4910720">
	<ele>1559.91</ele>
</trkpt>
<trkpt lat="44.8535270" lon="5.4907590">
	<ele>1562.03</ele>
</trkpt>
<trkpt lat="44.8515480" lon="5.4902030">
	<ele>1571.03</ele>
</trkpt>
<trkpt lat="44.8506780" lon="5.4884570">
	<ele>1568.62</ele>
</trkpt>
<trkpt lat="44.8501460" lon="5.4875160">
	<ele>1567.80</ele>
</trkpt>
<trkpt lat="44.8496250" lon="5.4872130">
	<ele>1568.50</ele>
</trkpt>
<trkpt lat="44.8491830" lon="5.4869550">
	<ele>1569.91</ele>
</trkpt>
<trkpt lat="44.8482980" lon="5.4861870">
	<ele>1570.69</ele>
</trkpt>
<trkpt lat="44.8475480" lon="5.4855510">
	<ele>1573.67</ele>
</trkpt>
<trkpt lat="44.8469830" lon="5.4853570">
	<ele>1576.20</ele>
</trkpt>
<trkpt lat="44.8466650" lon="5.4850890">
	<ele>1577.15</ele>
</trkpt>
<trkpt lat="44.8459330" lon="5.4853180">
	<ele>1580.24</ele>
</trkpt>
<trkpt lat="44.8456510" lon="5.4851760">
	<ele>1579.21</ele>
</trkpt>
<trkpt lat="44.8452200" lon="5.4852620">
	<ele>1577.10</ele>
</trkpt>
<trkpt lat="44.8446990" lon="5.4849370">
	<ele>1574.13</ele>
</trkpt>
<trkpt lat="44.8434620" lon="5.4842030">
	<ele>1578.75</ele>
</trkpt>
<trkpt lat="44.8434050" lon="5.4841990">
	<ele>1579.35</ele>
</trkpt>
<trkpt lat="44.8432990" lon="5.4841750">
	<ele>1580.38</ele>
</trkpt>
<trkpt lat="44.8431800" lon="5.4841730">
	<ele>1581.72</ele>
</trkpt>
<trkpt lat="44.8430090" lon="5.4841350">
	<ele>1583.74</ele>
</trkpt>
<trkpt lat="44.8422950" lon="5.4836350">
	<ele>1589.70</ele>
</trkpt>
<trkpt lat="44.8419780" lon="5.4835840">
	<ele>1590.54</ele>
</trkpt>
<trkpt lat="44.8416750" lon="5.4836230">
	<ele>1591.77</ele>
</trkpt>
<trkpt lat="44.8413690" lon="5.4835500">
	<ele>1595.20</ele>
</trkpt>
<trkpt lat="44.8409170" lon="5.4835130">
	<ele>1601.06</ele>
</trkpt>
<trkpt lat="44.8406280" lon="5.4835200">
	<ele>1604.35</ele>
</trkpt>
<trkpt lat="44.8400870" lon="5.4832390">
	<ele>1610.34</ele>
</trkpt>
<trkpt lat="44.8392750" lon="5.4826520">
	<ele>1615.99</ele>
</trkpt>
<trkpt lat="44.8385730" lon="5.4821770">
	<ele>1619.06</ele>
</trkpt>
<trkpt lat="44.8380000" lon="5.4819910">
	<ele>1619.94</ele>
</trkpt>
<trkpt lat="44.8374410" lon="5.4818910">
	<ele>1620.01</ele>
</trkpt>
<trkpt lat="44.8370720" lon="5.4819410">
	<ele>1619.53</ele>
</trkpt>
<trkpt lat="44.8360920" lon="5.4815160">
	<ele>1624.74</ele>
</trkpt>
<trkpt lat="44.8356330" lon="5.4814050">
	<ele>1626.11</ele>
</trkpt>
<trkpt lat="44.8354490" lon="5.4814260">
	<ele>1625.91</ele>
</trkpt>
<trkpt lat="44.8343410" lon="5.4817100">
	<ele>1628.29</ele>
</trkpt>
<trkpt lat="44.8341260" lon="5.4817150">
	<ele>1628.05</ele>
</trkpt>
<trkpt lat="44.8340350" lon="5.4816170">
	<ele>1627.11</ele>
</trkpt>
<trkpt lat="44.8340030" lon="5.4815110">
	<ele>1626.33</ele>
</trkpt>
<trkpt lat="44.8339980" lon="5.4812480">
	<ele>1624.75</ele>
</trkpt>
<trkpt lat="44.8339750" lon="5.4811080">
	<ele>1623.75</ele>
</trkpt>
<trkpt lat="44.8338530" lon="5.4809030">
	<ele>1621.95</ele>
</trkpt>
<trkpt lat="44.8335600" lon="5.4804770">
	<ele>1619.44</ele>
</trkpt>
<trkpt lat="44.8334290" lon="5.4803590">
	<ele>1618.89</ele>
</trkpt>
<trkpt lat="44.8333000" lon="5.4803510">
	<ele>1618.14</ele>
</trkpt>
<trkpt lat="44.8331450" lon="5.4802850">
	<ele>1616.81</ele>
</trkpt>
<trkpt lat="44.8331320" lon="5.4795900">
	<ele>1618.13</ele>
</trkpt>
<trkpt lat="44.8332180" lon="5.4790220">
	<ele>1620.19</ele>
</trkpt>
<trkpt lat="44.8332040" lon="5.4787290">
	<ele>1621.62</ele>
</trkpt>
<trkpt lat="44.8330000" lon="5.4782660">
	<ele>1622.64</ele>
</trkpt>
<trkpt lat="44.8327640" lon="5.4774480">
	<ele>1625.94</ele>
</trkpt>
<trkpt lat="44.8326820" lon="5.4773590">
	<ele>1626.27</ele>
</trkpt>
<trkpt lat="44.8324800" lon="5.4776290">
	<ele>1624.04</ele>
</trkpt>
<trkpt lat="44.8322750" lon="5.4777430">
	<ele>1624.70</ele>
</trkpt>
<trkpt lat="44.8320420" lon="5.4781060">
	<ele>1625.63</ele>
</trkpt>
<trkpt lat="44.8317990" lon="5.4784010">
	<ele>1626.97</ele>
</trkpt>
<trkpt lat="44.8314970" lon="5.4786020">
	<ele>1625.82</ele>
</trkpt>
<trkpt lat="44.8313220" lon="5.4786790">
	<ele>1624.05</ele>
</trkpt>
<trkpt lat="44.8309030" lon="5.4786820">
	<ele>1620.29</ele>
</trkpt>
<trkpt lat="44.8304850" lon="5.4788930">
	<ele>1619.04</ele>
</trkpt>
<trkpt lat="44.8300260" lon="5.4793510">
	<ele>1617.84</ele>
</trkpt>
<trkpt lat="44.8295960" lon="5.4799150">
	<ele>1616.43</ele>
</trkpt>
<trkpt lat="44.8289880" lon="5.4804260">
	<ele>1614.78</ele>
</trkpt>
<trkpt lat="44.8293070" lon="5.4798080">
	<ele>1616.46</ele>
</trkpt>
<trkpt lat="44.8291480" lon="5.4790180">
	<ele>1618.29</ele>
</trkpt>
<trkpt lat="44.8292250" lon="5.4774380">
	<ele>1618.98</ele>
</trkpt>
<trkpt lat="44.8292700" lon="5.4772390">
	<ele>1619.55</ele>
</trkpt>
<trkpt lat="44.8297360" lon="5.4751980">
	<ele>1636.79</ele>
</trkpt>
<trkpt lat="44.8297130" lon="5.4740590">
	<ele>1649.62</ele>
</trkpt>
<trkpt lat="44.8296090" lon="5.4730660">
	<ele>1656.32</ele>
</trkpt>
<trkpt lat="44.8296520" lon="5.4728410">
	<ele>1657.42</ele>
</trkpt>
<trkpt lat="44.8300520" lon="5.4719370">
	<ele>1662.32</ele>
</trkpt>
<trkpt lat="44.8301430" lon="5.4715350">
	<ele>1663.77</ele>
</trkpt>
<trkpt lat="44.8301600" lon="5.4713120">
	<ele>1664.42</ele>
</trkpt>
<trkpt lat="44.8301190" lon="5.4709980">
	<ele>1665.58</ele>
</trkpt>
<trkpt lat="44.8301140" lon="5.4704670">
	<ele>1666.17</ele>
</trkpt>
<trkpt lat="44.8303030" lon="5.4699230">
	<ele>1664.05</ele>
</trkpt>
<trkpt lat="44.8303640" lon="5.4698290">
	<ele>1663.62</ele>
</trkpt>
<trkpt lat="44.8303750" lon="5.4697080">
	<ele>1664.16</ele>
</trkpt>
<trkpt lat="44.8303520" lon="5.4694480">
	<ele>1666.03</ele>
</trkpt>
<trkpt lat="44.8303790" lon="5.4693220">
	<ele>1666.10</ele>
</trkpt>
<trkpt lat="44.8304740" lon="5.4692280">
	<ele>1664.85</ele>
</trkpt>
<trkpt lat="44.8305410" lon="5.4691370">
	<ele>1663.82</ele>
</trkpt>
<trkpt lat="44.8305920" lon="5.4689520">
	<ele>1662.74</ele>
</trkpt>
<trkpt lat="44.8308190" lon="5.4683990">
	<ele>1658.54</ele>
</trkpt>
<trkpt lat="44.8311620" lon="5.4677290">
	<ele>1649.31</ele>
</trkpt>
<trkpt lat="44.8312780" lon="5.4674500">
	<ele>1647.25</ele>
</trkpt>
<trkpt lat="44.8313420" lon="5.4671240">
	<ele>1644.98</ele>
</trkpt>
<trkpt lat="44.8312140" lon="5.4667800">
	<ele>1641.56</ele>
</trkpt>
<trkpt lat="44.8312300" lon="5.4659600">
	<ele>1639.90</ele>
</trkpt>
<trkpt lat="44.8313180" lon="5.4654280">
	<ele>1635.91</ele>
</trkpt>
<trkpt lat="44.8313470" lon="5.4646700">
	<ele>1624.91</ele>
</trkpt>
<trkpt lat="44.8313940" lon="5.4644370">
	<ele>1620.39</ele>
</trkpt>
<trkpt lat="44.8315850" lon="5.4637760">
	<ele>1612.13</ele>
</trkpt>
<trkpt lat="44.8320570" lon="5.4622820">
	<ele>1600.85</ele>
</trkpt>
<trkpt lat="44.8322870" lon="5.4615070">
	<ele>1592.01</ele>
</trkpt>
<trkpt lat="44.8325940" lon="5.4601160">
	<ele>1585.24</ele>
</trkpt>
<trkpt lat="44.8326440" lon="5.4594140">
	<ele>1580.51</ele>
</trkpt>
<trkpt lat="44.8327510" lon="5.4586370">
	<ele>1577.08</ele>
</trkpt>
<trkpt lat="44.8327970" lon="5.4579350">
	<ele>1572.04</ele>
</trkpt>
<trkpt lat="44.8326460" lon="5.4569980">
	<ele>1565.70</ele>
</trkpt>
<trkpt lat="44.8323190" lon="5.4560780">
	<ele>1562.69</ele>
</trkpt>
<trkpt lat="44.8321460" lon="5.4556320">
	<ele>1560.86</ele>
</trkpt>
<trkpt lat="44.8320380" lon="5.4554280">
	<ele>1559.89</ele>
</trkpt>
<trkpt lat="44.8313720" lon="5.4550580">
	<ele>1561.13</ele>
</trkpt>
<trkpt lat="44.8309890" lon="5.4548810">
	<ele>1559.25</ele>
</trkpt>
<trkpt lat="44.8308100" lon="5.4547820">
	<ele>1557.31</ele>
</trkpt>
<trkpt lat="44.8305940" lon="5.4546340">
	<ele>1553.99</ele>
</trkpt>
<trkpt lat="44.8302650" lon="5.4541970">
	<ele>1547.50</ele>
</trkpt>
<trkpt lat="44.8301540" lon="5.4538870">
	<ele>1545.05</ele>
</trkpt>
<trkpt lat="44.8299400" lon="5.4534140">
	<ele>1544.27</ele>
</trkpt>
<trkpt lat="44.8296820" lon="5.4528400">
	<ele>1547.91</ele>
</trkpt>
<trkpt lat="44.8296120" lon="5.4526840">
	<ele>1550.84</ele>
</trkpt>
<trkpt lat="44.8295690" lon="5.4525540">
	<ele>1553.60</ele>
</trkpt>
<trkpt lat="44.8295870" lon="5.4524120">
	<ele>1555.71</ele>
</trkpt>
<trkpt lat="44.8297420" lon="5.4520860">
	<ele>1559.12</ele>
</trkpt>
<trkpt lat="44.8310900" lon="5.4497460">
	<ele>1590.36</ele>
</trkpt>
<trkpt lat="44.8313270" lon="5.4486350">
	<ele>1598.33</ele>
</trkpt>
<trkpt lat="44.8313480" lon="5.4481240">
	<ele>1603.17</ele>
</trkpt>
<trkpt lat="44.8314600" lon="5.4479490">
	<ele>1603.86</ele>
</trkpt>
<trkpt lat="44.8315870" lon="5.4476750">
	<ele>1607.31</ele>
</trkpt>
<trkpt lat="44.8317420" lon="5.4471730">
	<ele>1611.72</ele>
</trkpt>
<trkpt lat="44.8318980" lon="5.4467180">
	<ele>1612.39</ele>
</trkpt>
<trkpt lat="44.8319470" lon="5.4463950">
	<ele>1613.01</ele>
</trkpt>
<trkpt lat="44.8319130" lon="5.4459340">
	<ele>1614.28</ele>
</trkpt>
<trkpt lat="44.8318660" lon="5.4454580">
	<ele>1615.68</ele>
</trkpt>
<trkpt lat="44.8319770" lon="5.4450640">
	<ele>1616.32</ele>
</trkpt>
<trkpt lat="44.8319560" lon="5.4446370">
	<ele>1620.63</ele>
</trkpt>
<trkpt lat="44.8320190" lon="5.4442330">
	<ele>1624.61</ele>
</trkpt>
<trkpt lat="44.8319820" lon="5.4438670">
	<ele>1629.53</ele>
</trkpt>
<trkpt lat="44.8318780" lon="5.4433400">
	<ele>1635.63</ele>
</trkpt>
<trkpt lat="44.8318660" lon="5.4428760">
	<ele>1631.25</ele>
</trkpt>
<trkpt lat="44.8319180" lon="5.4424290">
	<ele>1624.96</ele>
</trkpt>
<trkpt lat="44.8320880" lon="5.4419530">
	<ele>1619.91</ele>
</trkpt>
<trkpt lat="44.8322120" lon="5.4415840">
	<ele>1620.58</ele>
</trkpt>
<trkpt lat="44.8322610" lon="5.4406360">
	<ele>1632.45</ele>
</trkpt>
<trkpt lat="44.8325280" lon="5.4405920">
	<ele>1630.86</ele>
</trkpt>
<trkpt lat="44.8325990" lon="5.4400790">
	<ele>1630.63</ele>
</trkpt>
<trkpt lat="44.8325640" lon="5.4399270">
	<ele>1630.59</ele>
</trkpt>
<trkpt lat="44.8325700" lon="5.4395400">
	<ele>1629.62</ele>
</trkpt>
<trkpt lat="44.8325970" lon="5.4392880">
	<ele>1628.52</ele>
</trkpt>
<trkpt lat="44.8325460" lon="5.4386740">
	<ele>1626.67</ele>
</trkpt>
<trkpt lat="44.8325970" lon="5.4383840">
	<ele>1624.26</ele>
</trkpt>
<trkpt lat="44.8325890" lon="5.4381270">
	<ele>1623.09</ele>
</trkpt>
<trkpt lat="44.8325750" lon="5.4379140">
	<ele>1622.28</ele>
</trkpt>
<trkpt lat="44.8324330" lon="5.4376090">
	<ele>1623.18</ele>
</trkpt>
<trkpt lat="44.8322970" lon="5.4372550">
	<ele>1623.15</ele>
</trkpt>
<trkpt lat="44.8321920" lon="5.4365280">
	<ele>1616.78</ele>
</trkpt>
<trkpt lat="44.8320570" lon="5.4360370">
	<ele>1609.61</ele>
</trkpt>
<trkpt lat="44.8319740" lon="5.4356230">
	<ele>1605.45</ele>
</trkpt>
<trkpt lat="44.8317760" lon="5.4350060">
	<ele>1602.17</ele>
</trkpt>
<trkpt lat="44.8317110" lon="5.4348700">
	<ele>1601.22</ele>
</trkpt>
<trkpt lat="44.8315300" lon="5.4346810">
	<ele>1601.13</ele>
</trkpt>
<trkpt lat="44.8314620" lon="5.4345700">
	<ele>1599.93</ele>
</trkpt>
<trkpt lat="44.8313160" lon="5.4342850">
	<ele>1596.58</ele>
</trkpt>
<trkpt lat="44.8311800" lon="5.4340760">
	<ele>1595.58</ele>
</trkpt>
<trkpt lat="44.8310720" lon="5.4338910">
	<ele>1594.64</ele>
</trkpt>
<trkpt lat="44.8308710" lon="5.4334180">
	<ele>1590.50</ele>
</trkpt>
<trkpt lat="44.8308190" lon="5.4330320">
	<ele>1586.29</ele>
</trkpt>
<trkpt lat="44.8307870" lon="5.4329040">
	<ele>1585.55</ele>
</trkpt>
<trkpt lat="44.8306740" lon="5.4326780">
	<ele>1586.01</ele>
</trkpt>
<trkpt lat="44.8306700" lon="5.4325690">
	<ele>1585.23</ele>
</trkpt>
<trkpt lat="44.8306770" lon="5.4320770">
	<ele>1583.12</ele>
</trkpt>
<trkpt lat="44.8306680" lon="5.4319380">
	<ele>1583.09</ele>
</trkpt>
<trkpt lat="44.8306490" lon="5.4318420">
	<ele>1583.24</ele>
</trkpt>
<trkpt lat="44.8304660" lon="5.4313450">
	<ele>1583.85</ele>
</trkpt>
<trkpt lat="44.8303020" lon="5.4309800">
	<ele>1583.79</ele>
</trkpt>
<trkpt lat="44.8301880" lon="5.4308180">
	<ele>1584.11</ele>
</trkpt>
<trkpt lat="44.8299250" lon="5.4303420">
	<ele>1585.20</ele>
</trkpt>
<trkpt lat="44.8298560" lon="5.4302680">
	<ele>1585.88</ele>
</trkpt>
<trkpt lat="44.8297750" lon="5.4302120">
	<ele>1586.91</ele>
</trkpt>
<trkpt lat="44.8293850" lon="5.4300320">
	<ele>1591.62</ele>
</trkpt>
<trkpt lat="44.8291030" lon="5.4299490">
	<ele>1593.58</ele>
</trkpt>
<trkpt lat="44.8289160" lon="5.4299150">
	<ele>1594.39</ele>
</trkpt>
<trkpt lat="44.8287290" lon="5.4298960">
	<ele>1595.22</ele>
</trkpt>
<trkpt lat="44.8286460" lon="5.4298660">
	<ele>1595.06</ele>
</trkpt>
<trkpt lat="44.8284950" lon="5.4297880">
	<ele>1594.36</ele>
</trkpt>
<trkpt lat="44.8281600" lon="5.4294720">
	<ele>1591.69</ele>
</trkpt>
<trkpt lat="44.8280480" lon="5.4293300">
	<ele>1591.56</ele>
</trkpt>
<trkpt lat="44.8277850" lon="5.4288340">
	<ele>1591.23</ele>
</trkpt>
<trkpt lat="44.8276940" lon="5.4285550">
	<ele>1591.76</ele>
</trkpt>
<trkpt lat="44.8276700" lon="5.4283720">
	<ele>1592.42</ele>
</trkpt>
<trkpt lat="44.8276660" lon="5.4281960">
	<ele>1593.22</ele>
</trkpt>
<trkpt lat="44.8277590" lon="5.4276970">
	<ele>1597.18</ele>
</trkpt>
<trkpt lat="44.8278420" lon="5.4273040">
	<ele>1603.00</ele>
</trkpt>
<trkpt lat="44.8278730" lon="5.4270890">
	<ele>1607.67</ele>
</trkpt>
<trkpt lat="44.8278720" lon="5.4268970">
	<ele>1612.18</ele>
</trkpt>
<trkpt lat="44.8278010" lon="5.4265760">
	<ele>1618.12</ele>
</trkpt>
<trkpt lat="44.8277630" lon="5.4263160">
	<ele>1618.05</ele>
</trkpt>
<trkpt lat="44.8276650" lon="5.4257640">
	<ele>1613.03</ele>
</trkpt>
<trkpt lat="44.8276540" lon="5.4254230">
	<ele>1611.63</ele>
</trkpt>
<trkpt lat="44.8275990" lon="5.4253010">
	<ele>1609.94</ele>
</trkpt>
<trkpt lat="44.8275730" lon="5.4252090">
	<ele>1608.83</ele>
</trkpt>
<trkpt lat="44.8275430" lon="5.4245160">
	<ele>1604.47</ele>
</trkpt>
<trkpt lat="44.8274920" lon="5.4239950">
	<ele>1599.92</ele>
</trkpt>
<trkpt lat="44.8274600" lon="5.4238760">
	<ele>1598.15</ele>
</trkpt>
<trkpt lat="44.8273990" lon="5.4237490">
	<ele>1594.64</ele>
</trkpt>
<trkpt lat="44.8274040" lon="5.4235770">
	<ele>1594.25</ele>
</trkpt>
<trkpt lat="44.8273220" lon="5.4231280">
	<ele>1587.04</ele>
</trkpt>
<trkpt lat="44.8272860" lon="5.4229950">
	<ele>1584.83</ele>
</trkpt>
<trkpt lat="44.8272380" lon="5.4229100">
	<ele>1583.22</ele>
</trkpt>
<trkpt lat="44.8271250" lon="5.4228290">
	<ele>1580.99</ele>
</trkpt>
<trkpt lat="44.8271040" lon="5.4227840">
	<ele>1581.20</ele>
</trkpt>
<trkpt lat="44.8270780" lon="5.4226500">
	<ele>1582.97</ele>
</trkpt>
<trkpt lat="44.8270360" lon="5.4223180">
	<ele>1586.69</ele>
</trkpt>
<trkpt lat="44.8269800" lon="5.4219660">
	<ele>1588.93</ele>
</trkpt>
<trkpt lat="44.8269320" lon="5.4217450">
	<ele>1590.34</ele>
</trkpt>
<trkpt lat="44.8268540" lon="5.4215010">
	<ele>1591.91</ele>
</trkpt>
<trkpt lat="44.8268290" lon="5.4212780">
	<ele>1592.14</ele>
</trkpt>
<trkpt lat="44.8268190" lon="5.4210760">
	<ele>1591.78</ele>
</trkpt>
<trkpt lat="44.8268420" lon="5.4209250">
	<ele>1591.62</ele>
</trkpt>
<trkpt lat="44.8269060" lon="5.4207640">
	<ele>1591.37</ele>
</trkpt>
<trkpt lat="44.8269510" lon="5.4205950">
	<ele>1590.08</ele>
</trkpt>
<trkpt lat="44.8269550" lon="5.4204190">
	<ele>1588.43</ele>
</trkpt>
<trkpt lat="44.8269850" lon="5.4202330">
	<ele>1587.36</ele>
</trkpt>
<trkpt lat="44.8270310" lon="5.4200850">
	<ele>1587.63</ele>
</trkpt>
<trkpt lat="44.8270350" lon="5.4199390">
	<ele>1588.43</ele>
</trkpt>
<trkpt lat="44.8269680" lon="5.4189410">
	<ele>1601.02</ele>
</trkpt>
<trkpt lat="44.8268880" lon="5.4183360">
	<ele>1599.46</ele>
</trkpt>
<trkpt lat="44.8267550" lon="5.4179930">
	<ele>1599.69</ele>
</trkpt>
<trkpt lat="44.8264280" lon="5.4174610">
	<ele>1610.42</ele>
</trkpt>
<trkpt lat="44.8263670" lon="5.4172740">
	<ele>1614.21</ele>
</trkpt>
<trkpt lat="44.8263630" lon="5.4171230">
	<ele>1613.90</ele>
</trkpt>
<trkpt lat="44.8263860" lon="5.4170160">
	<ele>1611.99</ele>
</trkpt>
<trkpt lat="44.8264660" lon="5.4168930">
	<ele>1607.87</ele>
</trkpt>
<trkpt lat="44.8274020" lon="5.4163940">
	<ele>1582.48</ele>
</trkpt>
<trkpt lat="44.8281360" lon="5.4159000">
	<ele>1565.25</ele>
</trkpt>
<trkpt lat="44.8286770" lon="5.4156640">
	<ele>1554.27</ele>
</trkpt>
<trkpt lat="44.8289470" lon="5.4156700">
	<ele>1551.30</ele>
</trkpt>
<trkpt lat="44.8293430" lon="5.4155740">
	<ele>1546.10</ele>
</trkpt>
<trkpt lat="44.8301410" lon="5.4152850">
	<ele>1534.90</ele>
</trkpt>
<trkpt lat="44.8307370" lon="5.4150510">
	<ele>1526.63</ele>
</trkpt>
<trkpt lat="44.8309950" lon="5.4148520">
	<ele>1521.73</ele>
</trkpt>
<trkpt lat="44.8315730" lon="5.4141140">
	<ele>1518.66</ele>
</trkpt>
<trkpt lat="44.8317450" lon="5.4137630">
	<ele>1515.61</ele>
</trkpt>
<trkpt lat="44.8318370" lon="5.4134740">
	<ele>1513.00</ele>
</trkpt>
<trkpt lat="44.8321050" lon="5.4132380">
	<ele>1511.78</ele>
</trkpt>
<trkpt lat="44.8324570" lon="5.4128210">
	<ele>1511.46</ele>
</trkpt>
<trkpt lat="44.8326770" lon="5.4125520">
	<ele>1511.27</ele>
</trkpt>
<trkpt lat="44.8329190" lon="5.4123240">
	<ele>1509.55</ele>
</trkpt>
<trkpt lat="44.8330680" lon="5.4122450">
	<ele>1508.65</ele>
</trkpt>
<trkpt lat="44.8330430" lon="5.4122310">
	<ele>1509.09</ele>
</trkpt>
<trkpt lat="44.8329900" lon="5.4121710">
	<ele>1510.23</ele>
</trkpt>
<trkpt lat="44.8329780" lon="5.4120930">
	<ele>1511.01</ele>
</trkpt>
<trkpt lat="44.8330120" lon="5.4119190">
	<ele>1511.72</ele>
</trkpt>
<trkpt lat="44.8329920" lon="5.4118720">
	<ele>1511.75</ele>
</trkpt>
<trkpt lat="44.8328840" lon="5.4117280">
	<ele>1510.60</ele>
</trkpt>
<trkpt lat="44.8328130" lon="5.4115340">
	<ele>1506.00</ele>
</trkpt>
<trkpt lat="44.8327840" lon="5.4114000">
	<ele>1501.13</ele>
</trkpt>
<trkpt lat="44.8326420" lon="5.4112320">
	<ele>1493.94</ele>
</trkpt>
<trkpt lat="44.8326130" lon="5.4112120">
	<ele>1493.10</ele>
</trkpt>
<trkpt lat="44.8326290" lon="5.4111650">
	<ele>1490.93</ele>
</trkpt>
<trkpt lat="44.8325930" lon="5.4110950">
	<ele>1487.82</ele>
</trkpt>
<trkpt lat="44.8326400" lon="5.4110080">
	<ele>1483.78</ele>
</trkpt>
<trkpt lat="44.8325840" lon="5.4109520">
	<ele>1481.49</ele>
</trkpt>
<trkpt lat="44.8325100" lon="5.4107910">
	<ele>1475.36</ele>
</trkpt>
<trkpt lat="44.8323980" lon="5.4106000">
	<ele>1469.01</ele>
</trkpt>
<trkpt lat="44.8323260" lon="5.4103800">
	<ele>1461.89</ele>
</trkpt>
<trkpt lat="44.8321730" lon="5.4101070">
	<ele>1454.72</ele>
</trkpt>
<trkpt lat="44.8320010" lon="5.4097580">
	<ele>1445.37</ele>
</trkpt>
<trkpt lat="44.8319040" lon="5.4095810">
	<ele>1440.27</ele>
</trkpt>
<trkpt lat="44.8319190" lon="5.4094810">
	<ele>1436.70</ele>
</trkpt>
<trkpt lat="44.8317770" lon="5.4093160">
	<ele>1431.53</ele>
</trkpt>
<trkpt lat="44.8316940" lon="5.4091920">
	<ele>1427.03</ele>
</trkpt>
<trkpt lat="44.8316660" lon="5.4090810">
	<ele>1423.10</ele>
</trkpt>
<trkpt lat="44.8316780" lon="5.4089510">
	<ele>1418.72</ele>
</trkpt>
<trkpt lat="44.8317450" lon="5.4088460">
	<ele>1415.15</ele>
</trkpt>
<trkpt lat="44.8319560" lon="5.4085970">
	<ele>1405.18</ele>
</trkpt>
<trkpt lat="44.8325400" lon="5.4074340">
	<ele>1370.77</ele>
</trkpt>
<trkpt lat="44.8327410" lon="5.4073070">
	<ele>1367.04</ele>
</trkpt>
<trkpt lat="44.8328970" lon="5.4072620">
	<ele>1364.80</ele>
</trkpt>
<trkpt lat="44.8333020" lon="5.4074810">
	<ele>1358.36</ele>
</trkpt>
<trkpt lat="44.8336230" lon="5.4074860">
	<ele>1354.47</ele>
</trkpt>
<trkpt lat="44.8338140" lon="5.4074580">
	<ele>1352.28</ele>
</trkpt>
<trkpt lat="44.8340460" lon="5.4073920">
	<ele>1349.14</ele>
</trkpt>
<trkpt lat="44.8342100" lon="5.4072890">
	<ele>1346.25</ele>
</trkpt>
<trkpt lat="44.8342880" lon="5.4070400">
	<ele>1344.97</ele>
</trkpt>
<trkpt lat="44.8346230" lon="5.4066410">
	<ele>1338.05</ele>
</trkpt>
<trkpt lat="44.8347350" lon="5.4064190">
	<ele>1337.19</ele>
</trkpt>
<trkpt lat="44.8348360" lon="5.4062660">
	<ele>1337.31</ele>
</trkpt>
<trkpt lat="44.8351670" lon="5.4060490">
	<ele>1334.04</ele>
</trkpt>
<trkpt lat="44.8353020" lon="5.4059400">
	<ele>1333.14</ele>
</trkpt>
<trkpt lat="44.8355210" lon="5.4055700">
	<ele>1335.34</ele>
</trkpt>
<trkpt lat="44.8356940" lon="5.4052190">
	<ele>1339.35</ele>
</trkpt>
<trkpt lat="44.8370080" lon="5.4038470">
	<ele>1347.72</ele>
</trkpt>
<trkpt lat="44.8371870" lon="5.4033960">
	<ele>1350.47</ele>
</trkpt>
<trkpt lat="44.8373240" lon="5.4029610">
	<ele>1353.59</ele>
</trkpt>
<trkpt lat="44.8374380" lon="5.4027090">
	<ele>1353.36</ele>
</trkpt>
<trkpt lat="44.8375450" lon="5.4022020">
	<ele>1359.86</ele>
</trkpt>
<trkpt lat="44.8375150" lon="5.4018870">
	<ele>1364.28</ele>
</trkpt>
<trkpt lat="44.8374450" lon="5.4017220">
	<ele>1363.72</ele>
</trkpt>
<trkpt lat="44.8373400" lon="5.4016940">
	<ele>1362.73</ele>
</trkpt>
<trkpt lat="44.8372930" lon="5.4016540">
	<ele>1361.87</ele>
</trkpt>
<trkpt lat="44.8371810" lon="5.4016180">
	<ele>1360.57</ele>
</trkpt>
<trkpt lat="44.8371500" lon="5.4015920">
	<ele>1359.64</ele>
</trkpt>
<trkpt lat="44.8371140" lon="5.4015760">
	<ele>1358.90</ele>
</trkpt>
<trkpt lat="44.8371160" lon="5.4015570">
	<ele>1358.22</ele>
</trkpt>
<trkpt lat="44.8371470" lon="5.4015220">
	<ele>1357.16</ele>
</trkpt>
<trkpt lat="44.8372230" lon="5.4014860">
	<ele>1356.61</ele>
</trkpt>
<trkpt lat="44.8374730" lon="5.4012340">
	<ele>1352.56</ele>
</trkpt>
<trkpt lat="44.8375450" lon="5.4008750">
	<ele>1342.78</ele>
</trkpt>
<trkpt lat="44.8375860" lon="5.4007630">
	<ele>1341.39</ele>
</trkpt>
<trkpt lat="44.8375900" lon="5.4006920">
	<ele>1339.91</ele>
</trkpt>
<trkpt lat="44.8375770" lon="5.4006390">
	<ele>1338.26</ele>
</trkpt>
<trkpt lat="44.8375430" lon="5.4006050">
	<ele>1336.22</ele>
</trkpt>
<trkpt lat="44.8374860" lon="5.4006120">
	<ele>1334.16</ele>
</trkpt>
<trkpt lat="44.8373910" lon="5.4006610">
	<ele>1331.68</ele>
</trkpt>
<trkpt lat="44.8372690" lon="5.4006480">
	<ele>1326.95</ele>
</trkpt>
<trkpt lat="44.8371550" lon="5.4006610">
	<ele>1323.21</ele>
</trkpt>
<trkpt lat="44.8371240" lon="5.4006040">
	<ele>1320.88</ele>
</trkpt>
<trkpt lat="44.8370880" lon="5.4004950">
	<ele>1317.53</ele>
</trkpt>
<trkpt lat="44.8370860" lon="5.4003700">
	<ele>1315.19</ele>
</trkpt>
<trkpt lat="44.8371300" lon="5.4001060">
	<ele>1310.27</ele>
</trkpt>
<trkpt lat="44.8372020" lon="5.3998580">
	<ele>1302.42</ele>
</trkpt>
<trkpt lat="44.8372670" lon="5.3998130">
	<ele>1302.32</ele>
</trkpt>
<trkpt lat="44.8373970" lon="5.3998060">
	<ele>1306.65</ele>
</trkpt>
<trkpt lat="44.8374270" lon="5.3997860">
	<ele>1306.88</ele>
</trkpt>
<trkpt lat="44.8375970" lon="5.3994340">
	<ele>1297.35</ele>
</trkpt>
<trkpt lat="44.8376210" lon="5.3992590">
	<ele>1290.12</ele>
</trkpt>
<trkpt lat="44.8376410" lon="5.3992120">
	<ele>1289.09</ele>
</trkpt>
<trkpt lat="44.8377350" lon="5.3991220">
	<ele>1290.67</ele>
</trkpt>
<trkpt lat="44.8378120" lon="5.3989840">
	<ele>1289.03</ele>
</trkpt>
<trkpt lat="44.8379110" lon="5.3988390">
	<ele>1287.94</ele>
</trkpt>
<trkpt lat="44.8379630" lon="5.3987370">
	<ele>1285.77</ele>
</trkpt>
<trkpt lat="44.8381920" lon="5.3984320">
	<ele>1282.68</ele>
</trkpt>
<trkpt lat="44.8383730" lon="5.3982460">
	<ele>1284.65</ele>
</trkpt>
<trkpt lat="44.8384520" lon="5.3981230">
	<ele>1284.60</ele>
</trkpt>
<trkpt lat="44.8385240" lon="5.3979480">
	<ele>1283.14</ele>
</trkpt>
<trkpt lat="44.8385490" lon="5.3978140">
	<ele>1280.84</ele>
</trkpt>
<trkpt lat="44.8385420" lon="5.3977180">
	<ele>1277.91</ele>
</trkpt>
<trkpt lat="44.8385180" lon="5.3976050">
	<ele>1273.68</ele>
</trkpt>
<trkpt lat="44.8384750" lon="5.3975230">
	<ele>1269.14</ele>
</trkpt>
<trkpt lat="44.8384860" lon="5.3974540">
	<ele>1268.34</ele>
</trkpt>
<trkpt lat="44.8384910" lon="5.3972420">
	<ele>1265.08</ele>
</trkpt>
<trkpt lat="44.8384630" lon="5.3969150">
	<ele>1259.75</ele>
</trkpt>
<trkpt lat="44.8384850" lon="5.3963300">
	<ele>1255.13</ele>
</trkpt>
<trkpt lat="44.8385790" lon="5.3960040">
	<ele>1256.74</ele>
</trkpt>
<trkpt lat="44.8386300" lon="5.3957570">
	<ele>1254.81</ele>
</trkpt>
<trkpt lat="44.8386480" lon="5.3956500">
	<ele>1253.01</ele>
</trkpt>
<trkpt lat="44.8386480" lon="5.3954160">
	<ele>1246.10</ele>
</trkpt>
<trkpt lat="44.8387880" lon="5.3951590">
	<ele>1244.11</ele>
</trkpt>
<trkpt lat="44.8389530" lon="5.3949950">
	<ele>1246.16</ele>
</trkpt>
<trkpt lat="44.8392040" lon="5.3948270">
	<ele>1252.34</ele>
</trkpt>
<trkpt lat="44.8392690" lon="5.3947420">
	<ele>1252.78</ele>
</trkpt>
<trkpt lat="44.8393290" lon="5.3946240">
	<ele>1252.22</ele>
</trkpt>
<trkpt lat="44.8394740" lon="5.3943020">
	<ele>1252.47</ele>
</trkpt>
<trkpt lat="44.8396960" lon="5.3938860">
	<ele>1259.67</ele>
</trkpt>
<trkpt lat="44.8397760" lon="5.3936930">
	<ele>1261.90</ele>
</trkpt>
<trkpt lat="44.8398080" lon="5.3935560">
	<ele>1262.74</ele>
</trkpt>
<trkpt lat="44.8398100" lon="5.3934890">
	<ele>1262.80</ele>
</trkpt>
<trkpt lat="44.8397890" lon="5.3934250">
	<ele>1262.04</ele>
</trkpt>
<trkpt lat="44.8396350" lon="5.3932710">
	<ele>1256.99</ele>
</trkpt>
<trkpt lat="44.8395430" lon="5.3931200">
	<ele>1257.02</ele>
</trkpt>
<trkpt lat="44.8394610" lon="5.3929250">
	<ele>1260.69</ele>
</trkpt>
<trkpt lat="44.8393510" lon="5.3926160">
	<ele>1268.39</ele>
</trkpt>
<trkpt lat="44.8391150" lon="5.3921740">
	<ele>1267.67</ele>
</trkpt>
<trkpt lat="44.8385500" lon="5.3914590">
	<ele>1286.79</ele>
</trkpt>
<trkpt lat="44.8383490" lon="5.3911930">
	<ele>1310.99</ele>
</trkpt>
<trkpt lat="44.8380700" lon="5.3910230">
	<ele>1318.16</ele>
</trkpt>
<trkpt lat="44.8378740" lon="5.3908850">
	<ele>1323.42</ele>
</trkpt>
<trkpt lat="44.8375210" lon="5.3907060">
	<ele>1321.33</ele>
</trkpt>
<trkpt lat="44.8373580" lon="5.3906140">
	<ele>1319.19</ele>
</trkpt>
<trkpt lat="44.8370540" lon="5.3904870">
	<ele>1313.10</ele>
</trkpt>
<trkpt lat="44.8367260" lon="5.3902520">
	<ele>1307.09</ele>
</trkpt>
<trkpt lat="44.8366710" lon="5.3901400">
	<ele>1308.32</ele>
</trkpt>
<trkpt lat="44.8364730" lon="5.3899610">
	<ele>1310.17</ele>
</trkpt>
<trkpt lat="44.8363540" lon="5.3898280">
	<ele>1312.43</ele>
</trkpt>
<trkpt lat="44.8363860" lon="5.3897290">
	<ele>1313.16</ele>
</trkpt>
<trkpt lat="44.8364570" lon="5.3897030">
	<ele>1313.45</ele>
</trkpt>
<trkpt lat="44.8365900" lon="5.3896970">
	<ele>1314.64</ele>
</trkpt>
<trkpt lat="44.8367040" lon="5.3896550">
	<ele>1316.91</ele>
</trkpt>
<trkpt lat="44.8367430" lon="5.3895600">
	<ele>1318.09</ele>
</trkpt>
<trkpt lat="44.8367340" lon="5.3893970">
	<ele>1318.69</ele>
</trkpt>
<trkpt lat="44.8366450" lon="5.3891480">
	<ele>1321.04</ele>
</trkpt>
<trkpt lat="44.8365530" lon="5.3889680">
	<ele>1326.61</ele>
</trkpt>
<trkpt lat="44.8364580" lon="5.3888800">
	<ele>1329.30</ele>
</trkpt>
<trkpt lat="44.8360970" lon="5.3886090">
	<ele>1336.64</ele>
</trkpt>
<trkpt lat="44.8355530" lon="5.3883090">
	<ele>1334.44</ele>
</trkpt>
<trkpt lat="44.8353000" lon="5.3881210">
	<ele>1332.32</ele>
</trkpt>
<trkpt lat="44.8349390" lon="5.3879200">
	<ele>1327.98</ele>
</trkpt>
<trkpt lat="44.8348340" lon="5.3878230">
	<ele>1327.08</ele>
</trkpt>
<trkpt lat="44.8347860" lon="5.3877290">
	<ele>1327.76</ele>
</trkpt>
<trkpt lat="44.8347930" lon="5.3876540">
	<ele>1329.94</ele>
</trkpt>
<trkpt lat="44.8348530" lon="5.3875920">
	<ele>1333.64</ele>
</trkpt>
<trkpt lat="44.8349930" lon="5.3875640">
	<ele>1338.33</ele>
</trkpt>
<trkpt lat="44.8356120" lon="5.3874030">
	<ele>1349.86</ele>
</trkpt>
<trkpt lat="44.8358420" lon="5.3874560">
	<ele>1351.52</ele>
</trkpt>
<trkpt lat="44.8361060" lon="5.3874800">
	<ele>1354.22</ele>
</trkpt>
<trkpt lat="44.8361520" lon="5.3874700">
	<ele>1354.76</ele>
</trkpt>
<trkpt lat="44.8363890" lon="5.3874170">
	<ele>1357.13</ele>
</trkpt>
<trkpt lat="44.8375120" lon="5.3873420">
	<ele>1358.92</ele>
</trkpt>
<trkpt lat="44.8377650" lon="5.3873420">
	<ele>1359.08</ele>
</trkpt>
<trkpt lat="44.8399270" lon="5.3874860">
	<ele>1376.09</ele>
</trkpt>
<trkpt lat="44.8406350" lon="5.3876480">
	<ele>1386.61</ele>
</trkpt>
<trkpt lat="44.8412000" lon="5.3876870">
	<ele>1396.77</ele>
</trkpt>
<trkpt lat="44.8413670" lon="5.3876600">
	<ele>1399.86</ele>
</trkpt>
<trkpt lat="44.8418790" lon="5.3876590">
	<ele>1408.14</ele>
</trkpt>
<trkpt lat="44.8420080" lon="5.3875660">
	<ele>1409.43</ele>
</trkpt>
<trkpt lat="44.8421160" lon="5.3875530">
	<ele>1410.56</ele>
</trkpt>
<trkpt lat="44.8425540" lon="5.3878530">
	<ele>1416.73</ele>
</trkpt>
<trkpt lat="44.8426640" lon="5.3878430">
	<ele>1417.94</ele>
</trkpt>
<trkpt lat="44.8427590" lon="5.3874340">
	<ele>1415.88</ele>
</trkpt>
<trkpt lat="44.8428180" lon="5.3872840">
	<ele>1415.14</ele>
</trkpt>
<trkpt lat="44.8431350" lon="5.3867600">
	<ele>1409.59</ele>
</trkpt>
<trkpt lat="44.8434530" lon="5.3864030">
	<ele>1404.11</ele>
</trkpt>
<trkpt lat="44.8435620" lon="5.3863220">
	<ele>1402.46</ele>
</trkpt>
<trkpt lat="44.8439950" lon="5.3861550">
	<ele>1396.16</ele>
</trkpt>
<trkpt lat="44.8445970" lon="5.3858650">
	<ele>1388.13</ele>
</trkpt>
<trkpt lat="44.8452130" lon="5.3856930">
	<ele>1381.49</ele>
</trkpt>
<trkpt lat="44.8455550" lon="5.3855650">
	<ele>1377.59</ele>
</trkpt>
<trkpt lat="44.8460950" lon="5.3854410">
	<ele>1368.73</ele>
</trkpt>
<trkpt lat="44.8467420" lon="5.3853930">
	<ele>1355.99</ele>
</trkpt>
<trkpt lat="44.8469200" lon="5.3853290">
	<ele>1351.26</ele>
</trkpt>
<trkpt lat="44.8471870" lon="5.3853390">
	<ele>1345.06</ele>
</trkpt>
<trkpt lat="44.8473230" lon="5.3852320">
	<ele>1339.56</ele>
</trkpt>
<trkpt lat="44.8476700" lon="5.3846100">
	<ele>1331.63</ele>
</trkpt>
<trkpt lat="44.8478030" lon="5.3845780">
	<ele>1331.02</ele>
</trkpt>
<trkpt lat="44.8489280" lon="5.3849100">
	<ele>1314.53</ele>
</trkpt>
<trkpt lat="44.8501640" lon="5.3848940">
	<ele>1292.89</ele>
</trkpt>
<trkpt lat="44.8503580" lon="5.3848460">
	<ele>1289.42</ele>
</trkpt>
<trkpt lat="44.8510180" lon="5.3843880">
	<ele>1278.62</ele>
</trkpt>
<trkpt lat="44.8516380" lon="5.3837890">
	<ele>1262.39</ele>
</trkpt>
<trkpt lat="44.8521270" lon="5.3831180">
	<ele>1259.76</ele>
</trkpt>
<trkpt lat="44.8522940" lon="5.3831080">
	<ele>1256.87</ele>
</trkpt>
<trkpt lat="44.8525640" lon="5.3832140">
	<ele>1249.39</ele>
</trkpt>
<trkpt lat="44.8537470" lon="5.3836710">
	<ele>1231.55</ele>
</trkpt>
<trkpt lat="44.8541800" lon="5.3837190">
	<ele>1226.68</ele>
</trkpt>
<trkpt lat="44.8546940" lon="5.3839870">
	<ele>1218.62</ele>
</trkpt>
<trkpt lat="44.8553650" lon="5.3841140">
	<ele>1206.18</ele>
</trkpt>
<trkpt lat="44.8556670" lon="5.3842610">
	<ele>1200.39</ele>
</trkpt>
<trkpt lat="44.8563060" lon="5.3842770">
	<ele>1196.14</ele>
</trkpt>
<trkpt lat="44.8566140" lon="5.3841860">
	<ele>1195.32</ele>
</trkpt>
<trkpt lat="44.8572040" lon="5.3838530">
	<ele>1189.54</ele>
</trkpt>
<trkpt lat="44.8575530" lon="5.3835150">
	<ele>1185.46</ele>
</trkpt>
<trkpt lat="44.8580330" lon="5.3827270">
	<ele>1177.69</ele>
</trkpt>
<trkpt lat="44.8583370" lon="5.3824960">
	<ele>1169.92</ele>
</trkpt>
<trkpt lat="44.8584700" lon="5.3824800">
	<ele>1167.33</ele>
</trkpt>
<trkpt lat="44.8587890" lon="5.3824960">
	<ele>1162.98</ele>
</trkpt>
<trkpt lat="44.8590880" lon="5.3823570">
	<ele>1159.14</ele>
</trkpt>
<trkpt lat="44.8592490" lon="5.3823510">
	<ele>1157.29</ele>
</trkpt>
<trkpt lat="44.8593750" lon="5.3822760">
	<ele>1155.59</ele>
</trkpt>
<trkpt lat="44.8594780" lon="5.3821100">
	<ele>1153.79</ele>
</trkpt>
<trkpt lat="44.8596640" lon="5.3818930">
	<ele>1151.64</ele>
</trkpt>
<trkpt lat="44.8598760" lon="5.3817450">
	<ele>1150.07</ele>
</trkpt>
<trkpt lat="44.8602810" lon="5.3813640">
	<ele>1145.64</ele>
</trkpt>
<trkpt lat="44.8607630" lon="5.3808920">
	<ele>1140.40</ele>
</trkpt>
<trkpt lat="44.8612480" lon="5.3805110">
	<ele>1139.51</ele>
</trkpt>
<trkpt lat="44.8614400" lon="5.3804030">
	<ele>1139.52</ele>
</trkpt>
<trkpt lat="44.8615960" lon="5.3803570">
	<ele>1139.45</ele>
</trkpt>
<trkpt lat="44.8619290" lon="5.3803450">
	<ele>1139.04</ele>
</trkpt>
<trkpt lat="44.8622330" lon="5.3804000">
	<ele>1138.16</ele>
</trkpt>
<trkpt lat="44.8623900" lon="5.3804040">
	<ele>1137.64</ele>
</trkpt>
<trkpt lat="44.8626110" lon="5.3803680">
	<ele>1137.05</ele>
</trkpt>
<trkpt lat="44.8629100" lon="5.3802640">
	<ele>1136.28</ele>
</trkpt>
<trkpt lat="44.8634130" lon="5.3800370">
	<ele>1135.45</ele>
</trkpt>
<trkpt lat="44.8636370" lon="5.3799960">
	<ele>1134.85</ele>
</trkpt>
<trkpt lat="44.8639100" lon="5.3800070">
	<ele>1133.86</ele>
</trkpt>
<trkpt lat="44.8643350" lon="5.3799880">
	<ele>1132.32</ele>
</trkpt>
<trkpt lat="44.8643680" lon="5.3798850">
	<ele>1132.45</ele>
</trkpt>
<trkpt lat="44.8643670" lon="5.3797510">
	<ele>1132.95</ele>
</trkpt>
<trkpt lat="44.8643330" lon="5.3796460">
	<ele>1133.60</ele>
</trkpt>
<trkpt lat="44.8642770" lon="5.3795840">
	<ele>1134.23</ele>
</trkpt>
<trkpt lat="44.8635800" lon="5.3790950">
	<ele>1139.00</ele>
</trkpt>
<trkpt lat="44.8634870" lon="5.3789800">
	<ele>1138.93</ele>
</trkpt>
<trkpt lat="44.8633530" lon="5.3787520">
	<ele>1138.05</ele>
</trkpt>
<trkpt lat="44.8633620" lon="5.3786870">
	<ele>1137.55</ele>
</trkpt>
<trkpt lat="44.8633820" lon="5.3786070">
	<ele>1136.90</ele>
</trkpt>
<trkpt lat="44.8634670" lon="5.3784540">
	<ele>1135.58</ele>
</trkpt>
<trkpt lat="44.8637490" lon="5.3781400">
	<ele>1134.01</ele>
</trkpt>
<trkpt lat="44.8638560" lon="5.3780030">
	<ele>1134.09</ele>
</trkpt>
<trkpt lat="44.8639210" lon="5.3778880">
	<ele>1134.46</ele>
</trkpt>
<trkpt lat="44.8640270" lon="5.3775070">
	<ele>1136.47</ele>
</trkpt>
<trkpt lat="44.8640940" lon="5.3771800">
	<ele>1138.35</ele>
</trkpt>
<trkpt lat="44.8642100" lon="5.3761550">
	<ele>1141.90</ele>
</trkpt>
<trkpt lat="44.8643070" lon="5.3756240">
	<ele>1142.44</ele>
</trkpt>
<trkpt lat="44.8643690" lon="5.3753990">
	<ele>1142.89</ele>
</trkpt>
<trkpt lat="44.8644070" lon="5.3751820">
	<ele>1143.60</ele>
</trkpt>
<trkpt lat="44.8644280" lon="5.3748170">
	<ele>1144.61</ele>
</trkpt>
<trkpt lat="44.8644850" lon="5.3743560">
	<ele>1144.76</ele>
</trkpt>
<trkpt lat="44.8644830" lon="5.3742140">
	<ele>1144.90</ele>
</trkpt>
<trkpt lat="44.8644660" lon="5.3740470">
	<ele>1145.27</ele>
</trkpt>
<trkpt lat="44.8644360" lon="5.3739400">
	<ele>1145.73</ele>
</trkpt>
<trkpt lat="44.8643460" lon="5.3738330">
	<ele>1146.83</ele>
</trkpt>
<trkpt lat="44.8642230" lon="5.3737550">
	<ele>1148.26</ele>
</trkpt>
<trkpt lat="44.8641150" lon="5.3736370">
	<ele>1149.62</ele>
</trkpt>
<trkpt lat="44.8639470" lon="5.3733870">
	<ele>1151.63</ele>
</trkpt>
<trkpt lat="44.8637760" lon="5.3732130">
	<ele>1153.36</ele>
</trkpt>
<trkpt lat="44.8635820" lon="5.3729770">
	<ele>1154.93</ele>
</trkpt>
<trkpt lat="44.8632630" lon="5.3725450">
	<ele>1156.68</ele>
</trkpt>
<trkpt lat="44.8630570" lon="5.3721660">
	<ele>1156.86</ele>
</trkpt>
<trkpt lat="44.8628950" lon="5.3720650">
	<ele>1157.47</ele>
</trkpt>
<trkpt lat="44.8627570" lon="5.3719630">
	<ele>1157.95</ele>
</trkpt>
<trkpt lat="44.8624170" lon="5.3716810">
	<ele>1159.26</ele>
</trkpt>
<trkpt lat="44.8621810" lon="5.3713910">
	<ele>1160.58</ele>
</trkpt>
<trkpt lat="44.8617090" lon="5.3711120">
	<ele>1163.58</ele>
</trkpt>
<trkpt lat="44.8610930" lon="5.3705440">
	<ele>1168.38</ele>
</trkpt>
<trkpt lat="44.8605380" lon="5.3700180">
	<ele>1174.94</ele>
</trkpt>
<trkpt lat="44.8603030" lon="5.3697610">
	<ele>1178.11</ele>
</trkpt>
<trkpt lat="44.8598770" lon="5.3690200">
	<ele>1187.21</ele>
</trkpt>
<trkpt lat="44.8595040" lon="5.3684730">
	<ele>1192.83</ele>
</trkpt>
<trkpt lat="44.8592380" lon="5.3683440">
	<ele>1195.40</ele>
</trkpt>
<trkpt lat="44.8589870" lon="5.3678940">
	<ele>1200.05</ele>
</trkpt>
<trkpt lat="44.8587050" lon="5.3672290">
	<ele>1205.64</ele>
</trkpt>
<trkpt lat="44.8584810" lon="5.3660330">
	<ele>1212.80</ele>
</trkpt>
<trkpt lat="44.8581490" lon="5.3654370">
	<ele>1215.90</ele>
</trkpt>
<trkpt lat="44.8579720" lon="5.3649630">
	<ele>1217.75</ele>
</trkpt>
<trkpt lat="44.8575500" lon="5.3641440">
	<ele>1220.22</ele>
</trkpt>
<trkpt lat="44.8572680" lon="5.3633770">
	<ele>1222.82</ele>
</trkpt>
<trkpt lat="44.8572190" lon="5.3630020">
	<ele>1224.24</ele>
</trkpt>
<trkpt lat="44.8572550" lon="5.3625350">
	<ele>1225.88</ele>
</trkpt>
<trkpt lat="44.8571200" lon="5.3616310">
	<ele>1229.82</ele>
</trkpt>
<trkpt lat="44.8570630" lon="5.3609200">
	<ele>1233.07</ele>
</trkpt>
<trkpt lat="44.8571460" lon="5.3602440">
	<ele>1236.33</ele>
</trkpt>
<trkpt lat="44.8574790" lon="5.3589140">
	<ele>1245.08</ele>
</trkpt>
<trkpt lat="44.8576880" lon="5.3583780">
	<ele>1248.32</ele>
</trkpt>
<trkpt lat="44.8577150" lon="5.3576190">
	<ele>1251.18</ele>
</trkpt>
<trkpt lat="44.8578080" lon="5.3567870">
	<ele>1247.35</ele>
</trkpt>
<trkpt lat="44.8580570" lon="5.3562940">
	<ele>1248.69</ele>
</trkpt>
<trkpt lat="44.8584130" lon="5.3559480">
	<ele>1250.08</ele>
</trkpt>
<trkpt lat="44.8587280" lon="5.3554000">
	<ele>1249.06</ele>
</trkpt>
<trkpt lat="44.8588620" lon="5.3550170">
	<ele>1249.57</ele>
</trkpt>
<trkpt lat="44.8589490" lon="5.3545820">
	<ele>1251.85</ele>
</trkpt>
<trkpt lat="44.8588650" lon="5.3543010">
	<ele>1253.70</ele>
</trkpt>
<trkpt lat="44.8589030" lon="5.3536440">
	<ele>1258.78</ele>
</trkpt>
<trkpt lat="44.8588750" lon="5.3532470">
	<ele>1261.73</ele>
</trkpt>
<trkpt lat="44.8587130" lon="5.3527930">
	<ele>1264.60</ele>
</trkpt>
<trkpt lat="44.8587010" lon="5.3526480">
	<ele>1265.48</ele>
</trkpt>
<trkpt lat="44.8586890" lon="5.3524960">
	<ele>1266.44</ele>
</trkpt>
<trkpt lat="44.8587280" lon="5.3514790">
	<ele>1273.00</ele>
</trkpt>
<trkpt lat="44.8587970" lon="5.3511920">
	<ele>1274.66</ele>
</trkpt>
<trkpt lat="44.8589530" lon="5.3509560">
	<ele>1275.53</ele>
</trkpt>
<trkpt lat="44.8593250" lon="5.3501680">
	<ele>1279.40</ele>
</trkpt>
<trkpt lat="44.8596470" lon="5.3496420">
	<ele>1282.51</ele>
</trkpt>
<trkpt lat="44.8597420" lon="5.3493440">
	<ele>1285.95</ele>
</trkpt>
<trkpt lat="44.8600080" lon="5.3489500">
	<ele>1290.59</ele>
</trkpt>
<trkpt lat="44.8602130" lon="5.3487380">
	<ele>1292.92</ele>
</trkpt>
<trkpt lat="44.8603480" lon="5.3486650">
	<ele>1293.91</ele>
</trkpt>
<trkpt lat="44.8603810" lon="5.3486060">
	<ele>1294.66</ele>
</trkpt>
<trkpt lat="44.8608340" lon="5.3481000">
	<ele>1301.26</ele>
</trkpt>
<trkpt lat="44.8608410" lon="5.3479470">
	<ele>1303.40</ele>
</trkpt>
<trkpt lat="44.8607950" lon="5.3477800">
	<ele>1306.04</ele>
</trkpt>
<trkpt lat="44.8610840" lon="5.3469780">
	<ele>1315.82</ele>
</trkpt>
<trkpt lat="44.8611640" lon="5.3457030">
	<ele>1342.66</ele>
</trkpt>
<trkpt lat="44.8624620" lon="5.3450920">
	<ele>1361.01</ele>
</trkpt>
<trkpt lat="44.8627170" lon="5.3451020">
	<ele>1360.35</ele>
</trkpt>
<trkpt lat="44.8629140" lon="5.3448210">
	<ele>1368.83</ele>
</trkpt>
<trkpt lat="44.8637060" lon="5.3444680">
	<ele>1388.15</ele>
</trkpt>
<trkpt lat="44.8639280" lon="5.3444790">
	<ele>1392.35</ele>
</trkpt>
<trkpt lat="44.8641370" lon="5.3443180">
	<ele>1401.71</ele>
</trkpt>
<trkpt lat="44.8643350" lon="5.3439800">
	<ele>1409.80</ele>
</trkpt>
<trkpt lat="44.8643120" lon="5.3435200">
	<ele>1408.55</ele>
</trkpt>
<trkpt lat="44.8650080" lon="5.3439020">
	<ele>1407.15</ele>
</trkpt>
<trkpt lat="44.8656430" lon="5.3440680">
	<ele>1408.26</ele>
</trkpt>
<trkpt lat="44.8665990" lon="5.3443180">
	<ele>1407.04</ele>
</trkpt>
<trkpt lat="44.8667610" lon="5.3443520">
	<ele>1408.14</ele>
</trkpt>
<trkpt lat="44.8673100" lon="5.3445890">
	<ele>1418.21</ele>
</trkpt>
<trkpt lat="44.8677680" lon="5.3447120">
	<ele>1426.22</ele>
</trkpt>
<trkpt lat="44.8682060" lon="5.3447440">
	<ele>1431.46</ele>
</trkpt>
<trkpt lat="44.8685440" lon="5.3447470">
	<ele>1433.46</ele>
</trkpt>
<trkpt lat="44.8689450" lon="5.3446860">
	<ele>1433.12</ele>
</trkpt>
<trkpt lat="44.8693140" lon="5.3445830">
	<ele>1433.14</ele>
</trkpt>
<trkpt lat="44.8699180" lon="5.3445270">
	<ele>1437.44</ele>
</trkpt>
<trkpt lat="44.8701030" lon="5.3444500">
	<ele>1439.98</ele>
</trkpt>
<trkpt lat="44.8702850" lon="5.3443740">
	<ele>1444.74</ele>
</trkpt>
<trkpt lat="44.8705950" lon="5.3443500">
	<ele>1454.70</ele>
</trkpt>
<trkpt lat="44.8709120" lon="5.3443950">
	<ele>1459.33</ele>
</trkpt>
<trkpt lat="44.8712330" lon="5.3444100">
	<ele>1457.76</ele>
</trkpt>
<trkpt lat="44.8727820" lon="5.3445670">
	<ele>1447.46</ele>
</trkpt>
<trkpt lat="44.8733160" lon="5.3443960">
	<ele>1450.11</ele>
</trkpt>
<trkpt lat="44.8737950" lon="5.3445180">
	<ele>1450.19</ele>
</trkpt>
<trkpt lat="44.8742560" lon="5.3453330">
	<ele>1435.53</ele>
</trkpt>
<trkpt lat="44.8747560" lon="5.3455040">
	<ele>1444.04</ele>
</trkpt>
<trkpt lat="44.8755220" lon="5.3457750">
	<ele>1451.26</ele>
</trkpt>
<trkpt lat="44.8760320" lon="5.3461960">
	<ele>1443.93</ele>
</trkpt>
<trkpt lat="44.8764720" lon="5.3463900">
	<ele>1443.95</ele>
</trkpt>
<trkpt lat="44.8774140" lon="5.3464840">
	<ele>1461.58</ele>
</trkpt>
<trkpt lat="44.8778030" lon="5.3467890">
	<ele>1460.40</ele>
</trkpt>
<trkpt lat="44.8789330" lon="5.3469600">
	<ele>1483.57</ele>
</trkpt>
<trkpt lat="44.8795920" lon="5.3471600">
	<ele>1493.41</ele>
</trkpt>
<trkpt lat="44.8804280" lon="5.3472150">
	<ele>1512.36</ele>
</trkpt>
<trkpt lat="44.8813000" lon="5.3474760">
	<ele>1518.03</ele>
</trkpt>
<trkpt lat="44.8827400" lon="5.3475750">
	<ele>1534.72</ele>
</trkpt>
<trkpt lat="44.8828190" lon="5.3475810">
	<ele>1535.60</ele>
</trkpt>
<trkpt lat="44.8835450" lon="5.3477250">
	<ele>1541.52</ele>
</trkpt>
<trkpt lat="44.8853390" lon="5.3485500">
	<ele>1534.82</ele>
</trkpt>
<trkpt lat="44.8856130" lon="5.3485780">
	<ele>1539.36</ele>
</trkpt>
<trkpt lat="44.8864650" lon="5.3488550">
	<ele>1544.48</ele>
</trkpt>
<trkpt lat="44.8874700" lon="5.3488550">
	<ele>1563.82</ele>
</trkpt>
<trkpt lat="44.8887770" lon="5.3493810">
	<ele>1552.12</ele>
</trkpt>
<trkpt lat="44.8895420" lon="5.3494640">
	<ele>1555.41</ele>
</trkpt>
<trkpt lat="44.8905820" lon="5.3499650">
	<ele>1545.35</ele>
</trkpt>
<trkpt lat="44.8922680" lon="5.3504140">
	<ele>1551.76</ele>
</trkpt>
<trkpt lat="44.8932450" lon="5.3507900">
	<ele>1534.76</ele>
</trkpt>
<trkpt lat="44.8946300" lon="5.3507180">
	<ele>1524.50</ele>
</trkpt>
<trkpt lat="44.8952410" lon="5.3509930">
	<ele>1516.61</ele>
</trkpt>
<trkpt lat="44.8956970" lon="5.3512730">
	<ele>1512.56</ele>
</trkpt>
<trkpt lat="44.8959780" lon="5.3515770">
	<ele>1511.73</ele>
</trkpt>
<trkpt lat="44.8965270" lon="5.3517630">
	<ele>1508.26</ele>
</trkpt>
<trkpt lat="44.8963990" lon="5.3514740">
	<ele>1507.93</ele>
</trkpt>
<trkpt lat="44.8957700" lon="5.3503990">
	<ele>1495.20</ele>
</trkpt>
<trkpt lat="44.8951580" lon="5.3496140">
	<ele>1488.10</ele>
</trkpt>
<trkpt lat="44.8944520" lon="5.3483920">
	<ele>1483.98</ele>
</trkpt>
<trkpt lat="44.8940840" lon="5.3479550">
	<ele>1486.16</ele>
</trkpt>
<trkpt lat="44.8938230" lon="5.3475820">
	<ele>1482.13</ele>
</trkpt>
<trkpt lat="44.8935660" lon="5.3471110">
	<ele>1478.46</ele>
</trkpt>
<trkpt lat="44.8934470" lon="5.3467920">
	<ele>1476.26</ele>
</trkpt>
<trkpt lat="44.8935710" lon="5.3466410">
	<ele>1473.99</ele>
</trkpt>
<trkpt lat="44.8933020" lon="5.3464630">
	<ele>1480.14</ele>
</trkpt>
<trkpt lat="44.8931730" lon="5.3464670">
	<ele>1482.76</ele>
</trkpt>
<trkpt lat="44.8928570" lon="5.3462490">
	<ele>1492.18</ele>
</trkpt>
<trkpt lat="44.8924760" lon="5.3461470">
	<ele>1499.31</ele>
</trkpt>
<trkpt lat="44.8922210" lon="5.3460320">
	<ele>1502.95</ele>
</trkpt>
<trkpt lat="44.8919270" lon="5.3459730">
	<ele>1507.17</ele>
</trkpt>
<trkpt lat="44.8913300" lon="5.3456010">
	<ele>1510.70</ele>
</trkpt>
<trkpt lat="44.8909350" lon="5.3453240">
	<ele>1510.84</ele>
</trkpt>
<trkpt lat="44.8903050" lon="5.3448970">
	<ele>1522.48</ele>
</trkpt>
<trkpt lat="44.8896400" lon="5.3445850">
	<ele>1528.00</ele>
</trkpt>
<trkpt lat="44.8899170" lon="5.3441650">
	<ele>1538.15</ele>
</trkpt>
<trkpt lat="44.8901660" lon="5.3439910">
	<ele>1537.68</ele>
</trkpt>
<trkpt lat="44.8902480" lon="5.3437770">
	<ele>1535.68</ele>
</trkpt>
<trkpt lat="44.8904140" lon="5.3432210">
	<ele>1535.31</ele>
</trkpt>
<trkpt lat="44.8907720" lon="5.3427660">
	<ele>1537.25</ele>
</trkpt>
<trkpt lat="44.8914320" lon="5.3423880">
	<ele>1534.34</ele>
</trkpt>
<trkpt lat="44.8922430" lon="5.3419550">
	<ele>1529.22</ele>
</trkpt>
<trkpt lat="44.8930660" lon="5.3416180">
	<ele>1533.78</ele>
</trkpt>
<trkpt lat="44.8931550" lon="5.3413830">
	<ele>1534.14</ele>
</trkpt>
<trkpt lat="44.8931830" lon="5.3409050">
	<ele>1533.75</ele>
</trkpt>
<trkpt lat="44.8933970" lon="5.3406380">
	<ele>1530.62</ele>
</trkpt>
<trkpt lat="44.8935370" lon="5.3403680">
	<ele>1527.16</ele>
</trkpt>
<trkpt lat="44.8937230" lon="5.3399800">
	<ele>1522.40</ele>
</trkpt>
<trkpt lat="44.8938320" lon="5.3396860">
	<ele>1520.71</ele>
</trkpt>
<trkpt lat="44.8939150" lon="5.3393970">
	<ele>1520.71</ele>
</trkpt>
<trkpt lat="44.8940030" lon="5.3391690">
	<ele>1520.82</ele>
</trkpt>
<trkpt lat="44.8941370" lon="5.3385970">
	<ele>1524.72</ele>
</trkpt>
<trkpt lat="44.8948090" lon="5.3376200">
	<ele>1524.95</ele>
</trkpt>
<trkpt lat="44.8949700" lon="5.3373350">
	<ele>1523.53</ele>
</trkpt>
<trkpt lat="44.8950990" lon="5.3370030">
	<ele>1521.64</ele>
</trkpt>
<trkpt lat="44.8954840" lon="5.3359550">
	<ele>1520.79</ele>
</trkpt>
<trkpt lat="44.8957140" lon="5.3358760">
	<ele>1520.69</ele>
</trkpt>
<trkpt lat="44.8958580" lon="5.3357300">
	<ele>1518.59</ele>
</trkpt>
<trkpt lat="44.8962740" lon="5.3352480">
	<ele>1509.11</ele>
</trkpt>
<trkpt lat="44.8966600" lon="5.3349390">
	<ele>1510.00</ele>
</trkpt>
<trkpt lat="44.8970320" lon="5.3345650">
	<ele>1511.20</ele>
</trkpt>
<trkpt lat="44.8976560" lon="5.3334180">
	<ele>1509.65</ele>
</trkpt>
<trkpt lat="44.8977770" lon="5.3330560">
	<ele>1508.37</ele>
</trkpt>
<trkpt lat="44.8979130" lon="5.3327090">
	<ele>1505.96</ele>
</trkpt>
<trkpt lat="44.8978510" lon="5.3324310">
	<ele>1505.08</ele>
</trkpt>
<trkpt lat="44.8977240" lon="5.3321710">
	<ele>1503.99</ele>
</trkpt>
<trkpt lat="44.8977090" lon="5.3318560">
	<ele>1501.35</ele>
</trkpt>
<trkpt lat="44.8977270" lon="5.3318090">
	<ele>1500.85</ele>
</trkpt>
<trkpt lat="44.8978800" lon="5.3314290">
	<ele>1497.91</ele>
</trkpt>
<trkpt lat="44.8984110" lon="5.3306140">
	<ele>1496.67</ele>
</trkpt>
<trkpt lat="44.8983810" lon="5.3299990">
	<ele>1495.79</ele>
</trkpt>
<trkpt lat="44.8981890" lon="5.3291830">
	<ele>1491.43</ele>
</trkpt>
<trkpt lat="44.8981290" lon="5.3288500">
	<ele>1485.80</ele>
</trkpt>
<trkpt lat="44.8982130" lon="5.3286250">
	<ele>1481.13</ele>
</trkpt>
<trkpt lat="44.8980960" lon="5.3284080">
	<ele>1476.01</ele>
</trkpt>
<trkpt lat="44.8978350" lon="5.3283230">
	<ele>1472.61</ele>
</trkpt>
<trkpt lat="44.8978220" lon="5.3278840">
	<ele>1463.14</ele>
</trkpt>
<trkpt lat="44.8979260" lon="5.3276330">
	<ele>1459.02</ele>
</trkpt>
<trkpt lat="44.8980560" lon="5.3272510">
	<ele>1455.34</ele>
</trkpt>
<trkpt lat="44.8982480" lon="5.3269650">
	<ele>1453.45</ele>
</trkpt>
<trkpt lat="44.8982990" lon="5.3268370">
	<ele>1452.66</ele>
</trkpt>
<trkpt lat="44.8984120" lon="5.3266420">
	<ele>1451.16</ele>
</trkpt>
<trkpt lat="44.8984700" lon="5.3264220">
	<ele>1450.96</ele>
</trkpt>
<trkpt lat="44.8985430" lon="5.3262960">
	<ele>1450.70</ele>
</trkpt>
<trkpt lat="44.8988490" lon="5.3260060">
	<ele>1448.53</ele>
</trkpt>
<trkpt lat="44.8989960" lon="5.3259580">
	<ele>1446.99</ele>
</trkpt>
<trkpt lat="44.8991620" lon="5.3259540">
	<ele>1445.26</ele>
</trkpt>
<trkpt lat="44.8990850" lon="5.3257340">
	<ele>1447.27</ele>
</trkpt>
<trkpt lat="44.8990830" lon="5.3256410">
	<ele>1447.70</ele>
</trkpt>
<trkpt lat="44.8991310" lon="5.3255650">
	<ele>1447.53</ele>
</trkpt>
<trkpt lat="44.8990210" lon="5.3252490">
	<ele>1449.74</ele>
</trkpt>
<trkpt lat="44.8989790" lon="5.3250530">
	<ele>1450.62</ele>
</trkpt>
<trkpt lat="44.8989650" lon="5.3249310">
	<ele>1451.00</ele>
</trkpt>
<trkpt lat="44.8990020" lon="5.3248870">
	<ele>1450.82</ele>
</trkpt>
<trkpt lat="44.8990810" lon="5.3246940">
	<ele>1450.78</ele>
</trkpt>
<trkpt lat="44.8991740" lon="5.3245820">
	<ele>1450.24</ele>
</trkpt>
<trkpt lat="44.8992060" lon="5.3245810">
	<ele>1449.89</ele>
</trkpt>
<trkpt lat="44.8992110" lon="5.3245270">
	<ele>1449.95</ele>
</trkpt>
<trkpt lat="44.8992350" lon="5.3244810">
	<ele>1449.74</ele>
</trkpt>
<trkpt lat="44.8992790" lon="5.3244210">
	<ele>1449.22</ele>
</trkpt>
<trkpt lat="44.8993870" lon="5.3243600">
	<ele>1447.63</ele>
</trkpt>
<trkpt lat="44.8994540" lon="5.3243030">
	<ele>1446.53</ele>
</trkpt>
<trkpt lat="44.8994840" lon="5.3242230">
	<ele>1445.92</ele>
</trkpt>
<trkpt lat="44.8995020" lon="5.3241190">
	<ele>1445.31</ele>
</trkpt>
<trkpt lat="44.8995000" lon="5.3240400">
	<ele>1444.91</ele>
</trkpt>
<trkpt lat="44.8994560" lon="5.3238640">
	<ele>1443.95</ele>
</trkpt>
<trkpt lat="44.8994440" lon="5.3237480">
	<ele>1442.83</ele>
</trkpt>
<trkpt lat="44.8994200" lon="5.3229920">
	<ele>1439.77</ele>
</trkpt>
<trkpt lat="44.8993910" lon="5.3225860">
	<ele>1441.55</ele>
</trkpt>
<trkpt lat="44.8993350" lon="5.3224310">
	<ele>1442.06</ele>
</trkpt>
<trkpt lat="44.8993870" lon="5.3222740">
	<ele>1442.68</ele>
</trkpt>
<trkpt lat="44.8993920" lon="5.3221380">
	<ele>1443.20</ele>
</trkpt>
<trkpt lat="44.8995010" lon="5.3221240">
	<ele>1443.43</ele>
</trkpt>
<trkpt lat="44.8996070" lon="5.3221330">
	<ele>1443.70</ele>
</trkpt>
<trkpt lat="44.8997970" lon="5.3222640">
	<ele>1444.19</ele>
</trkpt>
<trkpt lat="44.8999780" lon="5.3223590">
	<ele>1445.21</ele>
</trkpt>
<trkpt lat="44.8999900" lon="5.3224340">
	<ele>1445.11</ele>
</trkpt>
<trkpt lat="44.9000300" lon="5.3224810">
	<ele>1445.32</ele>
</trkpt>
<trkpt lat="44.9006730" lon="5.3232190">
	<ele>1447.99</ele>
</trkpt>
<trkpt lat="44.9011820" lon="5.3238740">
	<ele>1450.95</ele>
</trkpt>
<trkpt lat="44.9013620" lon="5.3239690">
	<ele>1452.86</ele>
</trkpt>
<trkpt lat="44.9014430" lon="5.3237260">
	<ele>1455.28</ele>
</trkpt>
<trkpt lat="44.9014900" lon="5.3235090">
	<ele>1457.30</ele>
</trkpt>
<trkpt lat="44.9014830" lon="5.3233180">
	<ele>1458.81</ele>
</trkpt>
<trkpt lat="44.9014470" lon="5.3231530">
	<ele>1460.10</ele>
</trkpt>
<trkpt lat="44.9012520" lon="5.3227830">
	<ele>1461.40</ele>
</trkpt>
<trkpt lat="44.9012440" lon="5.3226840">
	<ele>1462.37</ele>
</trkpt>
<trkpt lat="44.9012720" lon="5.3226020">
	<ele>1463.77</ele>
</trkpt>
<trkpt lat="44.9014630" lon="5.3223520">
	<ele>1469.42</ele>
</trkpt>
<trkpt lat="44.9014970" lon="5.3222810">
	<ele>1470.47</ele>
</trkpt>
<trkpt lat="44.9015100" lon="5.3220380">
	<ele>1472.01</ele>
</trkpt>
<trkpt lat="44.9015470" lon="5.3218190">
	<ele>1473.68</ele>
</trkpt>
<trkpt lat="44.9015640" lon="5.3215660">
	<ele>1475.06</ele>
</trkpt>
<trkpt lat="44.9015520" lon="5.3203090">
	<ele>1478.36</ele>
</trkpt>
<trkpt lat="44.9015350" lon="5.3200380">
	<ele>1479.25</ele>
</trkpt>
<trkpt lat="44.9014840" lon="5.3198640">
	<ele>1480.22</ele>
</trkpt>
<trkpt lat="44.9014880" lon="5.3191160">
	<ele>1485.35</ele>
</trkpt>
<trkpt lat="44.9013430" lon="5.3186010">
	<ele>1491.14</ele>
</trkpt>
<trkpt lat="44.9013430" lon="5.3183380">
	<ele>1494.21</ele>
</trkpt>
<trkpt lat="44.9013850" lon="5.3181340">
	<ele>1496.61</ele>
</trkpt>
<trkpt lat="44.9015560" lon="5.3179190">
	<ele>1498.35</ele>
</trkpt>
<trkpt lat="44.9015900" lon="5.3174580">
	<ele>1503.13</ele>
</trkpt>
<trkpt lat="44.9015750" lon="5.3167020">
	<ele>1510.58</ele>
</trkpt>
<trkpt lat="44.9015220" lon="5.3162990">
	<ele>1515.57</ele>
</trkpt>
<trkpt lat="44.9015520" lon="5.3159400">
	<ele>1519.12</ele>
</trkpt>
<trkpt lat="44.9014460" lon="5.3155110">
	<ele>1524.65</ele>
</trkpt>
<trkpt lat="44.9014080" lon="5.3152210">
	<ele>1527.72</ele>
</trkpt>
<trkpt lat="44.9014120" lon="5.3143630">
	<ele>1535.70</ele>
</trkpt>
<trkpt lat="44.9011990" lon="5.3136380">
	<ele>1544.22</ele>
</trkpt>
<trkpt lat="44.9008420" lon="5.3132250">
	<ele>1550.95</ele>
</trkpt>
<trkpt lat="44.9006550" lon="5.3126940">
	<ele>1559.21</ele>
</trkpt>
<trkpt lat="44.9004730" lon="5.3122970">
	<ele>1566.11</ele>
</trkpt>
<trkpt lat="44.9003400" lon="5.3118950">
	<ele>1572.26</ele>
</trkpt>
<trkpt lat="44.9002480" lon="5.3115660">
	<ele>1577.20</ele>
</trkpt>
<trkpt lat="44.9003110" lon="5.3113960">
	<ele>1578.65</ele>
</trkpt>
<trkpt lat="44.9003660" lon="5.3111460">
	<ele>1581.36</ele>
</trkpt>
<trkpt lat="44.9003930" lon="5.3108920">
	<ele>1584.60</ele>
</trkpt>
<trkpt lat="44.9004390" lon="5.3106440">
	<ele>1587.77</ele>
</trkpt>
<trkpt lat="44.9005020" lon="5.3104740">
	<ele>1589.92</ele>
</trkpt>
<trkpt lat="44.9005950" lon="5.3103120">
	<ele>1592.24</ele>
</trkpt>
<trkpt lat="44.9009770" lon="5.3103970">
	<ele>1591.54</ele>
</trkpt>
<trkpt lat="44.9011050" lon="5.3104180">
	<ele>1592.54</ele>
</trkpt>
<trkpt lat="44.9013420" lon="5.3103080">
	<ele>1597.68</ele>
</trkpt>
<trkpt lat="44.9015560" lon="5.3101560">
	<ele>1602.84</ele>
</trkpt>
<trkpt lat="44.9016740" lon="5.3100550">
	<ele>1605.46</ele>
</trkpt>
<trkpt lat="44.9017520" lon="5.3099210">
	<ele>1607.84</ele>
</trkpt>
<trkpt lat="44.9018000" lon="5.3097080">
	<ele>1610.29</ele>
</trkpt>
<trkpt lat="44.9018490" lon="5.3095400">
	<ele>1611.74</ele>
</trkpt>
<trkpt lat="44.9020930" lon="5.3090710">
	<ele>1611.31</ele>
</trkpt>
<trkpt lat="44.9022140" lon="5.3088210">
	<ele>1609.61</ele>
</trkpt>
<trkpt lat="44.9022640" lon="5.3085530">
	<ele>1609.82</ele>
</trkpt>
<trkpt lat="44.9023310" lon="5.3083670">
	<ele>1610.25</ele>
</trkpt>
<trkpt lat="44.9024640" lon="5.3082090">
	<ele>1609.99</ele>
</trkpt>
<trkpt lat="44.9026980" lon="5.3080560">
	<ele>1608.07</ele>
</trkpt>
<trkpt lat="44.9028010" lon="5.3079740">
	<ele>1607.23</ele>
</trkpt>
<trkpt lat="44.9028490" lon="5.3078400">
	<ele>1608.19</ele>
</trkpt>
<trkpt lat="44.9029350" lon="5.3075170">
	<ele>1610.60</ele>
</trkpt>
<trkpt lat="44.9030340" lon="5.3072520">
	<ele>1611.32</ele>
</trkpt>
<trkpt lat="44.9030970" lon="5.3069810">
	<ele>1612.87</ele>
</trkpt>
<trkpt lat="44.9031940" lon="5.3067580">
	<ele>1613.25</ele>
</trkpt>
<trkpt lat="44.9032930" lon="5.3065690">
	<ele>1613.51</ele>
</trkpt>
<trkpt lat="44.9037700" lon="5.3059960">
	<ele>1616.04</ele>
</trkpt>
<trkpt lat="44.9039580" lon="5.3057250">
	<ele>1617.72</ele>
</trkpt>
<trkpt lat="44.9039990" lon="5.3055160">
	<ele>1618.94</ele>
</trkpt>
<trkpt lat="44.9038700" lon="5.3050610">
	<ele>1623.60</ele>
</trkpt>
<trkpt lat="44.9038510" lon="5.3047790">
	<ele>1625.02</ele>
</trkpt>
<trkpt lat="44.9039400" lon="5.3041920">
	<ele>1627.59</ele>
</trkpt>
<trkpt lat="44.9040920" lon="5.3039610">
	<ele>1634.29</ele>
</trkpt>
<trkpt lat="44.9043210" lon="5.3037680">
	<ele>1644.61</ele>
</trkpt>
<trkpt lat="44.9045760" lon="5.3037070">
	<ele>1648.31</ele>
</trkpt>
<trkpt lat="44.9047050" lon="5.3036650">
	<ele>1649.38</ele>
</trkpt>
<trkpt lat="44.9048310" lon="5.3035960">
	<ele>1650.91</ele>
</trkpt>
<trkpt lat="44.9052410" lon="5.3032950">
	<ele>1656.44</ele>
</trkpt>
<trkpt lat="44.9054590" lon="5.3031250">
	<ele>1656.86</ele>
</trkpt>
<trkpt lat="44.9056070" lon="5.3029260">
	<ele>1658.01</ele>
</trkpt>
<trkpt lat="44.9056990" lon="5.3026550">
	<ele>1659.93</ele>
</trkpt>
<trkpt lat="44.9057820" lon="5.3020530">
	<ele>1658.39</ele>
</trkpt>
<trkpt lat="44.9057920" lon="5.3019010">
	<ele>1656.71</ele>
</trkpt>
<trkpt lat="44.9057800" lon="5.3017740">
	<ele>1655.02</ele>
</trkpt>
<trkpt lat="44.9057560" lon="5.3016750">
	<ele>1653.47</ele>
</trkpt>
<trkpt lat="44.9057080" lon="5.3015900">
	<ele>1652.16</ele>
</trkpt>
<trkpt lat="44.9056100" lon="5.3014940">
	<ele>1650.84</ele>
</trkpt>
<trkpt lat="44.9055240" lon="5.3013930">
	<ele>1648.54</ele>
</trkpt>
<trkpt lat="44.9052490" lon="5.3011710">
	<ele>1643.73</ele>
</trkpt>
<trkpt lat="44.9044640" lon="5.3007340">
	<ele>1634.28</ele>
</trkpt>
<trkpt lat="44.9043250" lon="5.3006910">
	<ele>1633.56</ele>
</trkpt>
<trkpt lat="44.9041850" lon="5.3006020">
	<ele>1631.24</ele>
</trkpt>
<trkpt lat="44.9038860" lon="5.3005610">
	<ele>1633.38</ele>
</trkpt>
<trkpt lat="44.9035700" lon="5.3004440">
	<ele>1634.75</ele>
</trkpt>
<trkpt lat="44.9034840" lon="5.3002980">
	<ele>1632.09</ele>
</trkpt>
<trkpt lat="44.9031490" lon="5.3000500">
	<ele>1629.91</ele>
</trkpt>
<trkpt lat="44.9030550" lon="5.2998990">
	<ele>1628.14</ele>
</trkpt>
<trkpt lat="44.9028880" lon="5.2997590">
	<ele>1627.06</ele>
</trkpt>
<trkpt lat="44.9027680" lon="5.2997340">
	<ele>1627.83</ele>
</trkpt>
<trkpt lat="44.9022550" lon="5.2991340">
	<ele>1620.98</ele>
</trkpt>
<trkpt lat="44.9022090" lon="5.2989640">
	<ele>1619.07</ele>
</trkpt>
<trkpt lat="44.9021250" lon="5.2987810">
	<ele>1616.14</ele>
</trkpt>
<trkpt lat="44.9020170" lon="5.2986720">
	<ele>1615.06</ele>
</trkpt>
<trkpt lat="44.9018790" lon="5.2985470">
	<ele>1612.75</ele>
</trkpt>
<trkpt lat="44.9016200" lon="5.2981330">
	<ele>1604.98</ele>
</trkpt>
<trkpt lat="44.9015530" lon="5.2980700">
	<ele>1605.91</ele>
</trkpt>
<trkpt lat="44.9014660" lon="5.2979710">
	<ele>1607.06</ele>
</trkpt>
<trkpt lat="44.9012710" lon="5.2977250">
	<ele>1606.72</ele>
</trkpt>
<trkpt lat="44.9010430" lon="5.2974100">
	<ele>1601.05</ele>
</trkpt>
<trkpt lat="44.9010050" lon="5.2973060">
	<ele>1598.11</ele>
</trkpt>
<trkpt lat="44.9009650" lon="5.2972390">
	<ele>1596.38</ele>
</trkpt>
<trkpt lat="44.9007440" lon="5.2969980">
	<ele>1590.39</ele>
</trkpt>
<trkpt lat="44.9004750" lon="5.2965520">
	<ele>1581.40</ele>
</trkpt>
<trkpt lat="44.9002190" lon="5.2962820">
	<ele>1578.59</ele>
</trkpt>
<trkpt lat="44.9001210" lon="5.2961240">
	<ele>1575.21</ele>
</trkpt>
<trkpt lat="44.9000470" lon="5.2960340">
	<ele>1573.39</ele>
</trkpt>
<trkpt lat="44.8999920" lon="5.2959980">
	<ele>1573.08</ele>
</trkpt>
<trkpt lat="44.8998420" lon="5.2958250">
	<ele>1570.38</ele>
</trkpt>
<trkpt lat="44.8997570" lon="5.2957500">
	<ele>1569.95</ele>
</trkpt>
<trkpt lat="44.8996150" lon="5.2956000">
	<ele>1568.59</ele>
</trkpt>
<trkpt lat="44.8995460" lon="5.2955360">
	<ele>1568.02</ele>
</trkpt>
<trkpt lat="44.8994520" lon="5.2954800">
	<ele>1567.92</ele>
</trkpt>
<trkpt lat="44.8992950" lon="5.2953230">
	<ele>1565.28</ele>
</trkpt>
<trkpt lat="44.8992750" lon="5.2952880">
	<ele>1564.40</ele>
</trkpt>
<trkpt lat="44.8992880" lon="5.2952550">
	<ele>1563.18</ele>
</trkpt>
<trkpt lat="44.8993290" lon="5.2952460">
	<ele>1562.42</ele>
</trkpt>
<trkpt lat="44.8993860" lon="5.2952680">
	<ele>1562.45</ele>
</trkpt>
<trkpt lat="44.8994330" lon="5.2952560">
	<ele>1561.52</ele>
</trkpt>
<trkpt lat="44.8994430" lon="5.2952270">
	<ele>1560.53</ele>
</trkpt>
<trkpt lat="44.8994310" lon="5.2951960">
	<ele>1559.71</ele>
</trkpt>
<trkpt lat="44.8993950" lon="5.2951430">
	<ele>1558.45</ele>
</trkpt>
<trkpt lat="44.8991740" lon="5.2949250">
	<ele>1553.42</ele>
</trkpt>
<trkpt lat="44.8990570" lon="5.2948470">
	<ele>1551.83</ele>
</trkpt>
<trkpt lat="44.8990280" lon="5.2947980">
	<ele>1550.40</ele>
</trkpt>
<trkpt lat="44.8989240" lon="5.2946860">
	<ele>1547.24</ele>
</trkpt>
<trkpt lat="44.8988300" lon="5.2945620">
	<ele>1543.25</ele>
</trkpt>
<trkpt lat="44.8987380" lon="5.2944650">
	<ele>1539.91</ele>
</trkpt>
<trkpt lat="44.8986300" lon="5.2943720">
	<ele>1536.46</ele>
</trkpt>
<trkpt lat="44.8984920" lon="5.2942880">
	<ele>1533.11</ele>
</trkpt>
<trkpt lat="44.8983590" lon="5.2942450">
	<ele>1531.25</ele>
</trkpt>
<trkpt lat="44.8982870" lon="5.2941600">
	<ele>1527.66</ele>
</trkpt>
<trkpt lat="44.8982140" lon="5.2941120">
	<ele>1525.57</ele>
</trkpt>
<trkpt lat="44.8979760" lon="5.2940340">
	<ele>1521.63</ele>
</trkpt>
<trkpt lat="44.8978650" lon="5.2939710">
	<ele>1518.57</ele>
</trkpt>
<trkpt lat="44.8977570" lon="5.2939440">
	<ele>1516.92</ele>
</trkpt>
<trkpt lat="44.8976160" lon="5.2939350">
	<ele>1515.78</ele>
</trkpt>
<trkpt lat="44.8974630" lon="5.2939390">
	<ele>1515.10</ele>
</trkpt>
<trkpt lat="44.8974020" lon="5.2939600">
	<ele>1515.59</ele>
</trkpt>
<trkpt lat="44.8973310" lon="5.2939560">
	<ele>1514.97</ele>
</trkpt>
<trkpt lat="44.8972860" lon="5.2939750">
	<ele>1515.45</ele>
</trkpt>
<trkpt lat="44.8971340" lon="5.2939180">
	<ele>1512.07</ele>
</trkpt>
<trkpt lat="44.8969450" lon="5.2939270">
	<ele>1511.09</ele>
</trkpt>
<trkpt lat="44.8965930" lon="5.2937060">
	<ele>1500.73</ele>
</trkpt>
<trkpt lat="44.8963790" lon="5.2936080">
	<ele>1496.38</ele>
</trkpt>
<trkpt lat="44.8960870" lon="5.2934980">
	<ele>1491.47</ele>
</trkpt>
<trkpt lat="44.8959380" lon="5.2935580">
	<ele>1492.93</ele>
</trkpt>
<trkpt lat="44.8957270" lon="5.2935810">
	<ele>1492.70</ele>
</trkpt>
<trkpt lat="44.8957010" lon="5.2935700">
	<ele>1492.20</ele>
</trkpt>
<trkpt lat="44.8956670" lon="5.2935700">
	<ele>1492.14</ele>
</trkpt>
<trkpt lat="44.8956070" lon="5.2935940">
	<ele>1493.12</ele>
</trkpt>
<trkpt lat="44.8955670" lon="5.2936290">
	<ele>1494.71</ele>
</trkpt>
<trkpt lat="44.8955140" lon="5.2936450">
	<ele>1495.56</ele>
</trkpt>
<trkpt lat="44.8953760" lon="5.2935980">
	<ele>1493.06</ele>
</trkpt>
<trkpt lat="44.8951970" lon="5.2935750">
	<ele>1490.08</ele>
</trkpt>
<trkpt lat="44.8950350" lon="5.2934740">
	<ele>1480.87</ele>
</trkpt>
<trkpt lat="44.8949610" lon="5.2934640">
	<ele>1478.16</ele>
</trkpt>
<trkpt lat="44.8949070" lon="5.2934070">
	<ele>1473.98</ele>
</trkpt>
<trkpt lat="44.8948160" lon="5.2934150">
	<ele>1471.21</ele>
</trkpt>
<trkpt lat="44.8947020" lon="5.2932990">
	<ele>1464.85</ele>
</trkpt>
<trkpt lat="44.8942430" lon="5.2928920">
	<ele>1453.28</ele>
</trkpt>
<trkpt lat="44.8942310" lon="5.2927360">
	<ele>1454.03</ele>
</trkpt>
<trkpt lat="44.8942420" lon="5.2926160">
	<ele>1454.25</ele>
</trkpt>
<trkpt lat="44.8941870" lon="5.2923710">
	<ele>1453.17</ele>
</trkpt>
<trkpt lat="44.8941260" lon="5.2922770">
	<ele>1452.47</ele>
</trkpt>
<trkpt lat="44.8939960" lon="5.2921000">
	<ele>1451.28</ele>
</trkpt>
<trkpt lat="44.8939040" lon="5.2919000">
	<ele>1449.58</ele>
</trkpt>
<trkpt lat="44.8938230" lon="5.2916870">
	<ele>1448.15</ele>
</trkpt>
<trkpt lat="44.8937170" lon="5.2915800">
	<ele>1449.42</ele>
</trkpt>
<trkpt lat="44.8935960" lon="5.2915440">
	<ele>1452.11</ele>
</trkpt>
<trkpt lat="44.8934340" lon="5.2913460">
	<ele>1453.06</ele>
</trkpt>
<trkpt lat="44.8929780" lon="5.2903480">
	<ele>1447.72</ele>
</trkpt>
<trkpt lat="44.8929180" lon="5.2899870">
	<ele>1444.31</ele>
</trkpt>
<trkpt lat="44.8927600" lon="5.2894300">
	<ele>1439.91</ele>
</trkpt>
<trkpt lat="44.8922250" lon="5.2888470">
	<ele>1432.06</ele>
</trkpt>
<trkpt lat="44.8919600" lon="5.2887610">
	<ele>1426.87</ele>
</trkpt>
<trkpt lat="44.8917500" lon="5.2890500">
	<ele>1434.89</ele>
</trkpt>
<trkpt lat="44.8915940" lon="5.2890850">
	<ele>1435.71</ele>
</trkpt>
<trkpt lat="44.8914520" lon="5.2890760">
	<ele>1435.45</ele>
</trkpt>
<trkpt lat="44.8911590" lon="5.2888430">
	<ele>1431.11</ele>
</trkpt>
<trkpt lat="44.8908800" lon="5.2885410">
	<ele>1430.16</ele>
</trkpt>
<trkpt lat="44.8908370" lon="5.2884540">
	<ele>1429.78</ele>
</trkpt>
<trkpt lat="44.8908260" lon="5.2883310">
	<ele>1428.13</ele>
</trkpt>
<trkpt lat="44.8907200" lon="5.2880530">
	<ele>1426.17</ele>
</trkpt>
<trkpt lat="44.8906850" lon="5.2878630">
	<ele>1423.81</ele>
</trkpt>
<trkpt lat="44.8903570" lon="5.2871490">
	<ele>1420.58</ele>
</trkpt>
<trkpt lat="44.8902080" lon="5.2868750">
	<ele>1419.98</ele>
</trkpt>
<trkpt lat="44.8901980" lon="5.2867700">
	<ele>1418.37</ele>
</trkpt>
<trkpt lat="44.8900570" lon="5.2863490">
	<ele>1416.46</ele>
</trkpt>
<trkpt lat="44.8898530" lon="5.2858470">
	<ele>1416.00</ele>
</trkpt>
<trkpt lat="44.8897080" lon="5.2852660">
	<ele>1416.18</ele>
</trkpt>
<trkpt lat="44.8896150" lon="5.2850250">
	<ele>1417.51</ele>
</trkpt>
<trkpt lat="44.8894610" lon="5.2841850">
	<ele>1416.84</ele>
</trkpt>
<trkpt lat="44.8894790" lon="5.2839000">
	<ele>1414.54</ele>
</trkpt>
<trkpt lat="44.8894620" lon="5.2837750">
	<ele>1413.90</ele>
</trkpt>
<trkpt lat="44.8894230" lon="5.2836250">
	<ele>1413.30</ele>
</trkpt>
<trkpt lat="44.8894220" lon="5.2834400">
	<ele>1411.60</ele>
</trkpt>
<trkpt lat="44.8893670" lon="5.2832040">
	<ele>1409.80</ele>
</trkpt>
<trkpt lat="44.8892490" lon="5.2829630">
	<ele>1408.26</ele>
</trkpt>
<trkpt lat="44.8889970" lon="5.2827650">
	<ele>1408.54</ele>
</trkpt>
<trkpt lat="44.8888210" lon="5.2826400">
	<ele>1408.43</ele>
</trkpt>
<trkpt lat="44.8886220" lon="5.2816690">
	<ele>1394.13</ele>
</trkpt>
<trkpt lat="44.8886900" lon="5.2811040">
	<ele>1383.65</ele>
</trkpt>
<trkpt lat="44.8886610" lon="5.2807540">
	<ele>1377.88</ele>
</trkpt>
<trkpt lat="44.8885290" lon="5.2806370">
	<ele>1375.73</ele>
</trkpt>
<trkpt lat="44.8884290" lon="5.2804040">
	<ele>1372.46</ele>
</trkpt>
<trkpt lat="44.8884100" lon="5.2800970">
	<ele>1368.68</ele>
</trkpt>
<trkpt lat="44.8882790" lon="5.2798790">
	<ele>1364.95</ele>
</trkpt>
<trkpt lat="44.8882530" lon="5.2795720">
	<ele>1359.87</ele>
</trkpt>
<trkpt lat="44.8882920" lon="5.2793500">
	<ele>1356.53</ele>
</trkpt>
<trkpt lat="44.8881620" lon="5.2789050">
	<ele>1349.33</ele>
</trkpt>
<trkpt lat="44.8879320" lon="5.2786440">
	<ele>1344.40</ele>
</trkpt>
<trkpt lat="44.8872880" lon="5.2785810">
	<ele>1341.73</ele>
</trkpt>
<trkpt lat="44.8870880" lon="5.2784780">
	<ele>1341.39</ele>
</trkpt>
<trkpt lat="44.8860970" lon="5.2776700">
	<ele>1338.49</ele>
</trkpt>
<trkpt lat="44.8859760" lon="5.2775610">
	<ele>1337.91</ele>
</trkpt>
<trkpt lat="44.8858750" lon="5.2774300">
	<ele>1337.17</ele>
</trkpt>
<trkpt lat="44.8858330" lon="5.2773310">
	<ele>1336.58</ele>
</trkpt>
<trkpt lat="44.8858330" lon="5.2772230">
	<ele>1335.75</ele>
</trkpt>
<trkpt lat="44.8858610" lon="5.2771480">
	<ele>1335.04</ele>
</trkpt>
<trkpt lat="44.8859310" lon="5.2771130">
	<ele>1334.41</ele>
</trkpt>
<trkpt lat="44.8859950" lon="5.2771160">
	<ele>1334.12</ele>
</trkpt>
<trkpt lat="44.8861690" lon="5.2771880">
	<ele>1334.00</ele>
</trkpt>
<trkpt lat="44.8863610" lon="5.2772490">
	<ele>1333.89</ele>
</trkpt>
<trkpt lat="44.8867760" lon="5.2773080">
	<ele>1332.22</ele>
</trkpt>
<trkpt lat="44.8869870" lon="5.2773620">
	<ele>1330.79</ele>
</trkpt>
<trkpt lat="44.8874090" lon="5.2774190">
	<ele>1327.50</ele>
</trkpt>
<trkpt lat="44.8876220" lon="5.2773990">
	<ele>1326.28</ele>
</trkpt>
<trkpt lat="44.8877540" lon="5.2773720">
	<ele>1325.65</ele>
</trkpt>
<trkpt lat="44.8878960" lon="5.2772930">
	<ele>1324.44</ele>
</trkpt>
<trkpt lat="44.8880620" lon="5.2771730">
	<ele>1322.71</ele>
</trkpt>
<trkpt lat="44.8881380" lon="5.2771480">
	<ele>1322.33</ele>
</trkpt>
<trkpt lat="44.8883430" lon="5.2771830">
	<ele>1322.82</ele>
</trkpt>
<trkpt lat="44.8883978" lon="5.2771966">
	<ele>1323.04</ele>
</trkpt>
</trkseg>
</trk>
</gpx>
